domain,domainText,clusterNumber,clusterTestName,standardID,evidenceStatementText,fluencySkillArea,itemStrand,itemStrandText
CC,Counting and Cardinality,K.CC.A-C,[Count and] compare numbers.,K.CC.3,K.CC.3  Write numbers from 0 to 20. Represent a number of objects with a written numeral 0-20 (with 0 representing a count of no objects).,,,
CC,Counting and Cardinality,K.CC.A-C,[Count and] compare numbers.,K.CC.5,"K.CC.5  Count to answer _how many?î questions about as many as 20 things arranged in a line, a rectangular array, or a circle, or as many as 10 things in a scattered configuration; given a number from 1_20, count out that many objects.",,,
CC,Counting and Cardinality,K.CC.A-C,[Count and] compare numbers.,K.CC.6,"Identify whether the number of objects in one group is greater than, less than, or equal to the number of objects in another group, e.g., by using matching and counting strategies.",,,
CC,Counting and Cardinality,K.CC.A-C,[Count and] compare numbers.,K.CC.7,Compare two numbers between 1 and 10 presented as written numerals.,,,
OA,Operations and Algebraic Thinking,K-1.OA.A,Represent and solve problems involving addition and subtraction.,K.OA.1,"K.OA.1  Represent addition and subtraction with objects, fingers, mental images, drawings, sounds (e.g., claps), acting out situations, verbal explanations, expressions, or equations.",,,
OA,Operations and Algebraic Thinking,K-1.OA.A,Represent and solve problems involving addition and subtraction.,K.OA.2,"K.OA.2  Solve addition and subtraction word problems, and add and subtract within 10, e.g., by using objects or drawings to represent the problem.",,,
OA,Operations and Algebraic Thinking,K-1.OA.A,Represent and solve problems involving addition and subtraction.,K.OA.3,"K.OA.3  Decompose numbers less than or equal to 10 into pairs in more than one way, e.g., by using objects or drawings, and record each decomposition by a drawing or equation (e.g., 5 = 2 + 3 and 5 = 4 + 1).",,,
OA,Operations and Algebraic Thinking,K-1.OA.A,Represent and solve problems involving addition and subtraction., K.OA.4,"K.OA.4  For any number from 1 to 9, find the number that makes 10 when added to the given number, e.g., by using objects or drawings, and record the answer with a drawing or equation.",,,
OA,Operations and Algebraic Thinking,K-1.OA.A,Represent and solve problems involving addition and subtraction.,1.OA.1,"Use addition and subtraction within 20 to solve word problems involving situations of adding to, putting together, taking apart, and comparing, with unknowns in all positions, e.g., by using objects, drawings, and equations with a symbol for the unknown number to represent the problem.",,,
OA,Operations and Algebraic Thinking,K-1.OA.A,Represent and solve problems involving addition and subtraction.,1.OA.2,"Solve word problems that call for addition of three whole numbers whose sum is less than or equal to 20, e.g., by using objects, drawings, and equations with a symbol for the unknown number to represent the problem. ",,,
OA,Operations and Algebraic Thinking,1.OA.B-C,Understand and apply properties of operations and the relationship between addition and subtraction [within 20].,1.OA.3,"Apply properties of operations as strategies to add and subtract. Examples: If 8 + 3 = 11 is known, then 3 + 8 = 11 is also known. (Commutative property of addition.) To add 2 + 6 + 4, the second two numbers can be added to make a ten, so 2 + 6 + 4 = 2 + 10 = 12. (Associative property of addition.)",,,
OA,Operations and Algebraic Thinking,1.OA.B-C,Understand and apply properties of operations and the relationship between addition and subtraction [within 20].,1.OA.4,"Understand subtraction as an unknown-addend problem. For example, subtract 10 _ 8 by finding the number that makes 10 when added to 8.",,,
OA,Operations and Algebraic Thinking,1.OA.B-C,Understand and apply properties of operations and the relationship between addition and subtraction [within 20].,1.OA.5,"Relate counting to addition and subtraction (e.g., by counting on 2 to add 2).",,,
OA,Operations and Algebraic Thinking,1.OA.C-D,Work with addition and subtraction equations [within 20].,1.OA.6,"Add and subtract within 20, demonstrating fluency for addition and subtraction within 10. Use strategies such as counting on; making ten (e.g., 8 + 6 = 8 + 2 + 4 = 10 + 4 = 14); decomposing a number leading to a ten (e.g., 13 _ 4 = 13 _ 3 _ 1 = 10 _ 1 = 9); using the relationship between addition and subtraction (e.g., knowing that 8 + 4 = 12, one knows 12 _ 8 = 4); and creating equivalent but easier or known sums (e.g., adding 6 + 7 by creating the known equivalent 6 + 6 + 1 = 12 + 1 = 13).",,,
OA,Operations and Algebraic Thinking,1.OA.C-D,Work with addition and subtraction equations [within 20].,1.OA.7,"Understand the meaning of the equal sign, and determine if equations involving addition and subtraction are true or false. For example, which of the following equations are true and which are false? 6 = 6, 7 = 8 _ 1, 5 + 2 = 2 + 5, 4 + 1 = 5 + 2.",,,
OA,Operations and Algebraic Thinking,1.OA.C-D,Work with addition and subtraction equations [within 20].,1.OA.8,"Determine the unknown whole number in an addition or subtraction equation relating three whole numbers. For example, determine the unknown number that makes the equation true in each of the equations 8 + ? = 11, 5 = ? _ 3, 6 + 6 = ?.",,,
OA,Operations and Algebraic Thinking,2.OA.A,Represent and solve problems involving addition and subtraction.,2.OA.1-1,"Use addition and subtraction within 100 to solve one-step word problems involving situations of adding to, taking from, putting together, taking apart, and comparing, with unknowns in all positions, e.g., by using drawings and equations with a symbol for the unknown number to represent the problem.",,,
OA,Operations and Algebraic Thinking,2.OA.A,Represent and solve problems involving addition and subtraction.,2.OA.1-2,"Use addition and subtraction within 100 to solve two-step word problems involving situations of adding to, taking from, putting together, taking apart, and comparing, with unknowns in all positions, e.g., by using drawings and equations with a symbol for the unknown number to represent the problem.",,,
OA,Operations and Algebraic Thinking,2.OA.C,Work with equal groups of objects to gain foundations for multiplication. ,2.OA.3,"Determine whether a group of objects (up to 20) has an odd or even number of members, e.g., by pairing objects or counting them by 2s; write an equation to express an even number as a sum of two equal addends.",,,
OA,Operations and Algebraic Thinking,2.OA.C,Work with equal groups of objects to gain foundations for multiplication. ,2.OA.4,Use addition to find the total number of objects arranged in rectangular arrays with up to 5 rows and up to 5 columns; write an equation to express the total as a sum of equal addends.,,,
NBT,Number and Operations in Base Ten,K-1.NBT.A-B,[Extend the counting sequence and] understand place value.,K.NBT.1 ,"Compose and decompose numbers from 11 to 19 into ten ones and some further ones, e.g., by using objects or drawings, and record each composition or decomposition by a drawing or equation (such as 18 = 10 + 8); understand that these numbers are composed of ten ones and one, two, three, four, five, six, seven, eight, or nine ones.",,,
NBT,Number and Operations in Base Ten,K-1.NBT.A-B,[Extend the counting sequence and] understand place value.,1.NBT.1,"Count to 120, starting at any number less than 120. In this range, read and write numerals and represent a number of objects with a written numeral.   ",,,
NBT,Number and Operations in Base Ten,K-1.NBT.A-B,[Extend the counting sequence and] understand place value.,1.NBT.2,"Understand that the two digits of a two-digit number represent amounts of tens and ones. Understand the following as special cases:
a. 10 can be thought of as a bundle of ten ones - called a _ten.î
b. The numbers from 11 to 19 are composed of a ten and one, two,
three, four, five, six, seven, eight, or nine ones.
c. The numbers 10, 20, 30, 40, 50, 60, 70, 80, 90 refer to one, two, three, four, five, six, seven, eight, or nine tens (and 0 ones).",,,
NBT,Number and Operations in Base Ten,K-1.NBT.A-B,[Extend the counting sequence and] understand place value.,1.NBT.3,"Compare two two-digit numbers based on meanings of the tens and ones digits, recording the results of comparisons with the symbols >, =, and <.",,,
NBT,Number and Operations in Base Ten,1.NBT.C,Use place value understanding and properties of operations to add and subtract.,1.NBT.4-1,"Add within 100, including adding a two-digit number and a one-digit number, and adding a two-digit number and a multiple of 10, using concrete models or drawings and strategies based on place value, properties of operations, and/or the relationship between addition and subtraction; relate the strategy to a written method and explain the reasoning used. ",,,
NBT,Number and Operations in Base Ten,1.NBT.C,Use place value understanding and properties of operations to add and subtract.,1.NBT.4-2,"Understand that in adding two-digit numbers, one adds tens and tens, ones and ones; and sometimes it is necessary to compose a ten.",,,
NBT,Number and Operations in Base Ten,1.NBT.C,Use place value understanding and properties of operations to add and subtract.,1.NBT.5,"Given a two-digit number, mentally find 10 more or 10 less than the number, without having to count; explain the reasoning used.",,,
NBT,Number and Operations in Base Ten,1.NBT.C,Use place value understanding and properties of operations to add and subtract.,1.NBT.6,"Subtract multiples of 10 in the range 10-90 from multiples of 10 in the range 10-90 (positive or zero differences), using concrete models or drawings and strategies based on place value, properties of operations, and/or the relationship between addition and subtraction; relate the strategy to a written method and explain the reasoning used.",,,
NBT,Number and Operations in Base Ten,2.NBT.A,Understand place value.,2.NBT.1a,"Understand that the three digits of a three-digit number represent amounts of hundreds, tens, and ones; e.g., 706 equals 7 hundreds, 0 tens, and 6 ones. Understand the following as special cases:
a. 100 can be thought of as a bundle of ten tens - called a _hundred.î",,,
NBT,Number and Operations in Base Ten,2.NBT.A,Understand place value.,2.NBT.1b,"Understand that the three digits of a three-digit number represent amounts of hundreds, tens, and ones; e.g., 706 equals 7 hundreds, 0 tens, and 6 ones. Understand the following as special cases:
b. The numbers 100, 200, 300, 400, 500, 600, 700, 800, 900 refer to one, two, three, four, five, six, seven, eight, or nine hundreds (and 0 tens and 0 ones).",,,
NBT,Number and Operations in Base Ten,2.NBT.A,Understand place value.,2.NBT.2,"Count within 1000; skip-count by 5s, 10s, and 100s.",,,
NBT,Number and Operations in Base Ten,2.NBT.A,Understand place value.,2.NBT.3,"Read and write numbers to 1000 using base-ten numerals, number names, and expanded form.",,,
NBT,Number and Operations in Base Ten,2.NBT.A,Understand place value.,2.NBT.4,"Compare two three-digit numbers based on meanings of the hundreds, tens, and ones digits, using >, =, and < symbols to record the results of comparisons.",,,
NBT,Number and Operations in Base Ten,2.NBT.B,Use place value understanding and properties of operations to add and subtract.,2.NBT.6,Add up to four two-digit numbers using strategies based on place value and properties of operations.,,,
NBT,Number and Operations in Base Ten,2.NBT.B,Use place value understanding and properties of operations to add and subtract.,2.NBT.7,"Add and subtract within 1000, using concrete models or drawings and strategies based on place value, properties of operations, and/or the relationship between addition and subtraction; relate the strategy to a written method. Understand that in adding or subtracting three-digit numbers, one adds or subtracts hundreds and hundreds, tens and tens, ones and ones; and sometimes it is necessary to compose or decompose tens or hundreds.",,,
MD,Measurement and Data,1-2.MD.A,Measure and estimate lengths in standard units.,1.MD.1-1,Order three objects by length.,,,
MD,Measurement and Data,1-2.MD.A,Measure and estimate lengths in standard units.,1.MD.1-2,Compare the lengths of two objects indirectly by using a third object.,,,
MD,Measurement and Data,1-2.MD.A,Measure and estimate lengths in standard units.,1.MD.2,"Express the length of an object as a whole number of length units, by laying multiple copies of a shorter object (the length unit) end to end; understand that the length measurement of an object is the number of same-size length units that span it with no gaps or overlaps. Limit to contexts where the object being measured is spanned by a whole number of length units with no gaps or overlaps.",,,
MD,Measurement and Data,1-2.MD.A,Measure and estimate lengths in standard units.,2.MD.1,"Measure the length of an object by selecting and using appropriate tools, such as rulers,  yardsticks, meter sticks, and measuring tapes.",,,
MD,Measurement and Data,1-2.MD.A,Measure and estimate lengths in standard units.,2.MD.2,"Measure the length of an object twice, using length units of different lengths for the two measurements; describe how the two measurements relate to the size of the unit chosen.",,,
MD,Measurement and Data,1-2.MD.A,Measure and estimate lengths in standard units.,2.MD.3,"Estimate lengths using units of inches, feet, centimeters, and meters.",,,
MD,Measurement and Data,1-2.MD.A,Measure and estimate lengths in standard units.,2.MD.4,"Measure to determine how much longer one object is than another, expressing the length difference in terms of a standard length unit.",,,
MD,Measurement and Data,2.MD.B,Relate addition and subtraction to length.,2.MD.5,"Use addition and subtraction within 100 to solve word problems involving lengths that are given in the same units, e.g., by using drawings (such as drawings of rulers) and equations with a symbol for the unknown number to represent the problem.",,,
MD,Measurement and Data,2.MD.B,Relate addition and subtraction to length.,2.MD.6-1,"Represent whole numbers as lengths from 0 on a number line diagram with equally spaced points corresponding to the numbers 0, 1, 2, Û.",,,
MD,Measurement and Data,2.MD.B,Relate addition and subtraction to length.,2.MD.6-2,Represent whole-number sums and differences within 100 on a number line diagram.,,,
OA,Operations and Algebraic Thinking,3.OA.A,Represent and solve problems involving multiplication and division.,3.OA.1,"Interpret products of whole numbers, e.g., interpret 5 _ 7 as the total number of objects in 5 groups of 7 objects each. For example, describe a context in which a total number of objects can be expressed as 5 _ 7.",,,
OA,Operations and Algebraic Thinking,3.OA.A,Represent and solve problems involving multiplication and division.,3.OA.2,"Interpret whole-number quotients of whole numbers, e.g., interpret 56 Ä 8 as the number of objects in each share when 56 objects are partitioned equally into 8 shares, or as a number of shares when 56 objects are partitioned into equal shares of 8 objects each. For example, describe a context in which a number of shares or a number of groups can be expressed as 56 Ä 8.",,,
OA,Operations and Algebraic Thinking,3.OA.A,Represent and solve problems involving multiplication and division.,3.OA.3-1,"Use multiplication within 100 (both factors less than or equal to 10) to solve word problems in situations involving equal groups, arrays, or area, e.g., by using drawings and equations with a symbol for the unknown number to represent the problem.",,,
OA,Operations and Algebraic Thinking,3.OA.A,Represent and solve problems involving multiplication and division.,3.OA.3-2,"Use multiplication within 100 (both factors less than or equal to 10) to solve word problems in situations involving measurement quantities other than area, e.g., by using drawings and equations with a symbol for the unknown number to represent the problem.",,,
OA,Operations and Algebraic Thinking,3.OA.A,Represent and solve problems involving multiplication and division.,3.OA.3-3,"Use division within 100 (quotients related to products having both factors less than or equal to 10) to solve word problems in situations involving equal groups, arrays, or area, e.g., by using drawings and equations with a symbol for the unknown number to represent the problem.",,,
OA,Operations and Algebraic Thinking,3.OA.A,Represent and solve problems involving multiplication and division.,3.OA.3-4,"Use division within 100 (quotients related to products having both factors less than or equal to 10) to solve word problems in situations involving measurement quantities other than area, e.g., by using drawings and equations with a symbol for the unknown number to represent the problem.",,,
OA,Operations and Algebraic Thinking,3.OA.A,Represent and solve problems involving multiplication and division.,3.OA.4,"Determine the unknown whole number in a multiplication or division equation relating three whole numbers. For example, determine the unknown number that makes the equation true in each of the equations 8 x ? = 48, 5 = ? Ä 3, 6 x 6 = ?.",,,
OA,Operations and Algebraic Thinking,3.OA.B,Understand properties of multiplication and the relationship between multiplication and division.,3.OA.5,"Apply properties of operations as strategies to multiply and divide. Examples: If 6 _ 4 = 24 is known, then 4 _ 6 = 24 is also known. (Commutative property of multiplication.) 3 _ 5 _ 2 can be found by 3 _ 5 = 15, then 15 _ 2 = 30, or by 5 _ 2 = 10, then 3 _ 10 = 30. (Associative property of multiplication.) Knowing that 8 _ 5 = 40 and 8 _ 2 = 16, one can find 8 _ 7 as 8 _ (5 + 2) = (8 _ 5) + (8 _ 2) = 40 + 16 = 56. (Distributive property.)",,,
OA,Operations and Algebraic Thinking,3.OA.B,Understand properties of multiplication and the relationship between multiplication and division.,3.OA.6,"Understand division as an unknown-factor problem. For example, find 32 Ä 8 by finding the number that makes 32 when multiplied by 8.",,,
OA,Operations and Algebraic Thinking,3.OA.D,"Solve problems involving the four operations, and identify and explain patterns in arithmetic.",3.OA.8,Solve two-step word problems using the four operations. Represent these problems using equations with a letter standing for the unknown quantity. Assess the reasonableness of answers using mental computation and estimation strategies including rounding.,,,
MD,Measurement and Data,3.MD.A,"Solve problems involving measurement and estimation of intervals of time, liquid volumes, & masses of objects.",3.MD.1-1,Tell and write time to the nearest minute and measure time intervals in minutes. ,,,
MD,Measurement and Data,3.MD.A,"Solve problems involving measurement and estimation of intervals of time, liquid volumes, & masses of objects.",3.MD.1-2,"Solve word problems involving addition and subtraction of time intervals in minutes, e.g., by representing the problem on a number line diagram.",,,
MD,Measurement and Data,3.MD.A,"Solve problems involving measurement and estimation of intervals of time, liquid volumes, & masses of objects.",3.MD.2-1,"Measure and estimate liquid volumes and masses of objects using standard units of grams (g), kilograms (kg), and liters (l). ",,,
MD,Measurement and Data,3.MD.A,"Solve problems involving measurement and estimation of intervals of time, liquid volumes, & masses of objects.",3.MD.2-2,"Add, subtract, multiply, or divide to solve one-step word problems involving masses or volumes that are given in the same units, e.g., by using drawings (such as a beaker with a measurement scale) to represent the problem.",,,
MD,Measurement and Data,3.MD.C,Geometric measurement: understand concepts of area and relate area to multiplication and to addition.,3.MD.5,"Recognize area as an attribute of plane figures and understand concepts of area measurement. 
a. A square with side length 1 unit, called _a unit square,î is said to have _one square unitî of area, and can be used to measure area. 
b. A plane figure which can be covered without gaps or overlaps by n unit squares is said to have an area of n square units.",,,
MD,Measurement and Data,3.MD.C,Geometric measurement: understand concepts of area and relate area to multiplication and to addition.,3.MD.6,"Measure areas by counting unit squares (square cm, square m, square in, square ft, and improvised units).",,,
MD,Measurement and Data,3.MD.C,Geometric measurement: understand concepts of area and relate area to multiplication and to addition.,3.MD.7b,"Relate area to the operations of multiplication and addition.
b. Multiply side lengths to find areas of rectangles with whole-number side lengths in the context of solving real world and mathematical problems, and represent whole-number products as rectangular areas in mathematical reasoning. ",,,
MD,Measurement and Data,3.MD.C,Geometric measurement: understand concepts of area and relate area to multiplication and to addition.,3.MD.7d,"Relate area to the operations of multiplication and addition.
d. Recognize area as additive. Find areas of rectilinear figures by decomposing them into non-overlapping rectangles and adding the areas of the non-overlapping parts, applying this technique to solve real world problems.",,,
NF,Number and Operations-Fractions,3.NF.A,Develop understanding of fractions as numbers.,2.G.3,"Partition circles and rectangles into two, three, or four equal shares, describe the shares using the words halves, thirds, half of, a third of, etc., and describe the whole as two halves, three thirds, four fourths.  Recognize that equal shares of identical wholes need not have the
same shape.",,,
NF,Number and Operations-Fractions,3.NF.A,Develop understanding of fractions as numbers.,3.NF.1,Understand a fraction 1/b as the quantity formed by 1 part when a whole is partitioned into b equal parts; understand a fraction a/b as the quantity formed by a parts of size 1/b.,,,
NF,Number and Operations-Fractions,3.NF.A,Develop understanding of fractions as numbers.,3.NF.2,"Understand a fraction as a number on the number line; represent fractions on a number line diagram. 
a. Represent a fraction 1/b on a number line diagram by defining the interval from 0 to 1 as the whole and partitioning it into b equal parts. Recognize that each part has size 1/b and that the endpoint of the part based at 0 locates the number 1/b on the number line. 
b. Represent a fraction a/b on a number line diagram by marking off a lengths 1/b from 0. Recognize that the resulting interval has size a/b and that its endpoint locates the number a/b on the number line.",,,
NF,Number and Operations-Fractions,3.NF.A,Develop understanding of fractions as numbers.,3.NF.3a-1,"Explain equivalence of fractions in special cases, and compare fractions by reasoning about their size. 
a. Understand two fractions as equivalent (equal) if they are the same size.",,,
NF,Number and Operations-Fractions,3.NF.A,Develop understanding of fractions as numbers.,3.NF.3a-2,"Explain equivalence of fractions in special cases, and compare fractions by reasoning about their size. 
a. Understand two fractions as equivalent (equal) if they are the same point on a number line. ",,,
NF,Number and Operations-Fractions,3.NF.A,Develop understanding of fractions as numbers.,3.NF.3b,"Explain equivalence of fractions in special cases, and compare fractions by reasoning about their size. 
b. Recognize and generate simple equivalent fractions, e.g., 1/2 = 2/4, 4/6 = 2/3). ",,,
NF,Number and Operations-Fractions,3.NF.A,Develop understanding of fractions as numbers.,3.NF.3c,"Explain equivalence of fractions in special cases, and compare fractions by reasoning about their size. 
c. Express whole numbers as fractions, and recognize fractions that are equivalent to whole numbers. Examples: Express 3 in the form 3 = 3/1; recognize that 6/1 = 6; locate 4/4 and 1 at the same point of a number line diagram. ",,,
NF,Number and Operations-Fractions,3.NF.A,Develop understanding of fractions as numbers.,3.NF.3d,"Explain equivalence of fractions in special cases, and compare fractions by reasoning about their size. 
d. Compare two fractions with the same numerator or the same denominator by reasoning about their size. Recognize that comparisons are valid only when the two fractions refer to the same whole. Record the results of comparisons with the symbols >, =, or <, and justify the conclusions, e.g., by using a visual fraction model.",,,
OA,Operations and Algebraic Thinking,4.OA.A,Use the four operations with whole numbers to solve problems.,4.OA.1-1,"Interpret a multiplication equation as a comparison, e.g., interpret 35 = 5 x 7 as a statement that 35 is 5 times as many as 7 and 7 times as many as 5. ",,,
OA,Operations and Algebraic Thinking,4.OA.A,Use the four operations with whole numbers to solve problems.,4.OA.1-2,Represent verbal statements of multiplicative comparisons as multiplication equations.,,,
OA,Operations and Algebraic Thinking,4.OA.A,Use the four operations with whole numbers to solve problems.,4.OA.2,"Multiply or divide to solve word problems involving multiplicative comparison, e.g., by using drawings and equations with a symbol for the unknown number to represent the problem, distinguishing multiplicative comparison from additive comparison.",,,
OA,Operations and Algebraic Thinking,4.OA.A,Use the four operations with whole numbers to solve problems.,4.OA.3-1,Solve multi-step word problems posed with whole numbers and having whole-number answers using the four operations. ,,,
OA,Operations and Algebraic Thinking,4.OA.A,Use the four operations with whole numbers to solve problems.,4.OA.3-2,"Solve multi-step word problems posed with whole numbers and having whole-number answers using the four operations, in which remainders must be interpreted.",,,
NBT,Number and Operations in Base Ten,4.NBT.A,Generalize place value understanding for multi-digit whole numbers.,4.NBT.1,"Recognize that in a multi-digit whole number, a digit in one place represents ten times what it represents in the place to its right. For example, recognize that 700 Ä 70 = 10 by applying concepts of place value and division. ",,,
NBT,Number and Operations in Base Ten,4.NBT.A,Generalize place value understanding for multi-digit whole numbers.,4.NBT.2,"Read and write multi-digit whole numbers using base-ten numerals, number names, and expanded form. Compare two multi-digit numbers based on meanings of the digits in each place, using >, =, and < symbols to record the results of comparisons.",,,
NBT,Number and Operations in Base Ten,4.NBT.A,Generalize place value understanding for multi-digit whole numbers.,4.NBT.3,Use place value understanding to round multi-digit whole numbers to any place.,,,
NBT,Number and Operations in Base Ten,4.NBT.B,Use place value understanding and properties of operations to perform multi-digit arithmetic.,4.NBT.5-1,Multiply a whole number of three or four digits by a one-digit whole number using strategies based on place value and the properties of operations. ,,,
NBT,Number and Operations in Base Ten,4.NBT.B,Use place value understanding and properties of operations to perform multi-digit arithmetic.,4.NBT.5-2,"Multiply two two-digit numbers, using strategies based on place value and the properties of operations. ",,,
NBT,Number and Operations in Base Ten,4.NBT.B,Use place value understanding and properties of operations to perform multi-digit arithmetic.,4.NBT.6-1,"Find whole-number quotients and remainders with three-digit dividends and one-digit divisors, using strategies based on place value, the properties of operations, and/or the relationship between multiplication and division. ",,,
NBT,Number and Operations in Base Ten,4.NBT.B,Use place value understanding and properties of operations to perform multi-digit arithmetic.,4.NBT.6-2,"Find whole-number quotients and remainders with four-digit dividends and one-digit divisors, using strategies based on place value, the properties of operations, and/or the relationship between multiplication and division. ",,,
NBT,Number and Operations in Base Ten,4.NBT.B,Use place value understanding and properties of operations to perform multi-digit arithmetic.,4.Int.2,Solve one-step word problems involving multiplying two two-digit numbers.  Content Scope: 4.NBT.5,,,
NBT,Number and Operations in Base Ten,4.NBT.B,Use place value understanding and properties of operations to perform multi-digit arithmetic.,4.Int.3,Solve one-step word problems involving multiplying a four-digit number by a one-digit number.  Content Scope 4.NBT.5,,,
NBT,Number and Operations in Base Ten,4.NBT.B,Use place value understanding and properties of operations to perform multi-digit arithmetic.,4.Int.4,Solve one-step word problems involving dividing a four-digit number by a one-digit number.  Content Scope: 4.NBT.6,,,
NBT,Number and Operations in Base Ten,4.NBT.B,Use place value understanding and properties of operations to perform multi-digit arithmetic.,4.Int.7,Solve one-step word problems involving adding or subtracting two four-digit numbers.  Content Scope 4.NBT.4,,,
NF,Number and Operations-Fractions,4.NF.A,Extend understanding of fractions equivalence and ordering.,4.NF.1,Use the principle a/b = (nxa)/(nxb) to recognize and generate equivalent fractions.,,,
NF,Number and Operations-Fractions,4.NF.A,Extend understanding of fractions equivalence and ordering.,4.NF.2,"Compare two fractions with different numerators and different denominators, e.g., by creating common denominators or by comparing to a benchmark fraction such as 1/2. Record the results of comparisons with symbols <, =, or <.",,,
NF,Number and Operations-Fractions,4.NF.B,Build fractions from unit fractions by applying and extending previous understandings of operations on whole numbers.,4.NF.3a,"Understand a fraction a/b with a > 1 as a sum of fractions 1/b.
a.  Understand addition and subtraction of fractions as joining and separating parts referring to the same whole.",,,
NF,Number and Operations-Fractions,4.NF.B,Build fractions from unit fractions by applying and extending previous understandings of operations on whole numbers.,4.NF.3b,"Understand a fraction a/b with a > 1 as a sum of fractions 1/b.
b.  Decompose a fraction into a sum of fractions with the same denominator in more than one way, recording each decomposition by an equation. Examples: 3/8 = 1/8 + 1/8 + 1/8; 3/8 = 1/8 + 2/8; 2 1/8 = 1 + 1 + 1/8 = 8/8 + 8/8 + 1/8.",,,
NF,Number and Operations-Fractions,4.NF.B,Build fractions from unit fractions by applying and extending previous understandings of operations on whole numbers.,4.NF.3c,"Understand a fraction a/b with a > 1 as a sum of fractions 1/b.
c. Add and subtract mixed numbers with like denominators, e.g., by replacing each mixed number with an equivalent fraction, and/or by using properties of operations and the relationship between addition and subtraction.",,,
NF,Number and Operations-Fractions,4.NF.B,Build fractions from unit fractions by applying and extending previous understandings of operations on whole numbers.,4.NF.3d,"Understand a fraction a/b with a>1 as a sum of fractions 1/b.
d. Solve word problems involving addition and subtraction of fractions referring to the same whole and having like denominators, e.g., by using visual fraction models and equations to represent the problem.",,,
NF,Number and Operations-Fractions,4.NF.B,Build fractions from unit fractions by applying and extending previous understandings of operations on whole numbers.,4.NF.4a,"Apply and extend previous understandings of multiplication to multiply a fraction by a whole number.
a. Understand a fraction a/b as a multiple of 1/b. For example, use a visual fraction model to represent 5/4 as the product 5 x (1/4), recording the conclusion by the equation 5/4 = 5 x (1/4).",,,
NF,Number and Operations-Fractions,4.NF.B,Build fractions from unit fractions by applying and extending previous understandings of operations on whole numbers.,4.NF.4b-1,"Apply and extend previous understandings of multiplication to multiply a fraction by a whole number.
b.  Understand a multiple of a/b as a multiple of 1/b. For example, use a visual fraction model to express 3 x (2/5) as 6 x (1/5).",,,
NF,Number and Operations-Fractions,4.NF.B,Build fractions from unit fractions by applying and extending previous understandings of operations on whole numbers.,4.NF.4b-2,"Apply and extend previous understandings of multiplication to multiply a fraction by a whole number.
b.  Use the understanding that a multiple of a/b is a multiple of 1/b to multiply a fraction by a whole number. For example, use a visual fraction model to express 3 x (2/5) as 6/5. (In general, n x (a/b) = (nxa)/b.",,,
NF,Number and Operations-Fractions,4.NF.B,Build fractions from unit fractions by applying and extending previous understandings of operations on whole numbers.,4.NF.4c,"Apply and extend previous understandings of multiplication to multiply a fraction by a whole number.
c.  Solve word problems involving multiplication of a fraction by a whole number, e.g., by using visual fraction models and equations to represent the problem. For example, if each person at a party will eat 3/8 of a pound of roast beef, and there will be 5 people at the party, how many pounds of roast beef will be needed? Between what two whole numbers does your answer lie?",,,
NF,Number and Operations-Fractions,4.NF.C,"Understand decimal notation for fractions, and compare decimal fractions.",4.NF.5,"Express a fraction with denominator 10 as an equivalent fraction with denominator 100, and use this technique to add two fractions with respective denominators 10 and 100. For example, express 3/10 as 30/100, and add 3/10 + 4/100 = 34/100.",,,
NF,Number and Operations-Fractions,4.NF.C,"Understand decimal notation for fractions, and compare decimal fractions.",4.NF.6,"Use decimal notation for fractions with denominators 10 or 100. For example, rewrite 0.62 as 62/100; describe a length as 0.62 meters; locate 0.62 on a number line diagram.",,,
NF,Number and Operations-Fractions,4.NF.C,"Understand decimal notation for fractions, and compare decimal fractions.",4.NF.7,"Compare two decimals to hundredths by reasoning about their size. Recognize that comparisons are valid only when the two decimals refer to the same whole. Record the results of comparisons with the symbols >, =, or <, and justify the conclusions, e.g., by using a visual model. ",,,
NBT,Number and Operations in Base Ten,5.NBT.A,Understand the place value system.,5.NBT.1,"Recognize that in a multi-digit number, a digit in one place represents 10 times as much as it represents in the place to its right and 1/10 of what it represents in the place to its left.",,,
NBT,Number and Operations in Base Ten,5.NBT.A,Understand the place value system.,5.NBT.2,Use whole-number exponents to denote powers of 10.,,,
NBT,Number and Operations in Base Ten,5.NBT.A,Understand the place value system.,5.NBT.3a,"Read, write and compare decimals to thousandths.   Read, write and compare decimals to thousandths.
a. Read and write decimals to thousandths using base-ten numerals, number names, and expanded form, e.g., 347.392 = 3 x 100 + 4 x 10 + 7 x 1 + 3 x (1/10) + 9 x (1/100) + 2 x (1/1000).",,,
NBT,Number and Operations in Base Ten,5.NBT.A,Understand the place value system.,5.NBT.3b,"Read, write and compare decimals to thousandths. 
b. Compare two decimals to thousandths based on meanings of the digits in each place, using >, =, and < symbols to record the results of comparisons.",,,
NBT,Number and Operations in Base Ten,5.NBT.A,Understand the place value system.,5.NBT.4,Use place value understanding to round decimals to any place.,,,
NBT,Number and Operations in Base Ten,5.NBT.B,Perform operations with multi-digit whole numbers and with decimals to hundredths.,5.Int.1,Solve one-step word problems involving multiplying multi-digit whole numbers.,,,
NBT,Number and Operations in Base Ten,5.NBT.B,Perform operations with multi-digit whole numbers and with decimals to hundredths.,5.NBT.5,Solve word problems involving multiplication of three two-digit numbers. ,,,
NBT,Number and Operations in Base Ten,5.NBT.B,Perform operations with multi-digit whole numbers and with decimals to hundredths.,5.NBT.6,"Find whole-number quotients of whole numbers with up to four-digit dividends and two-digit divisors, using strategies based on place value, the properties of operations, and/or the relationship between multiplication and division. Illustrate and explain the calculation by using equations, rectangular arrays, and/or area models.",,,
NBT,Number and Operations in Base Ten,5.NBT.B,Perform operations with multi-digit whole numbers and with decimals to hundredths.,5.NBT.7-1,"Add two decimals to hundredths, using concrete models or drawings and strategies based on place value, properties of operations, and/or the relationship between addition and subtraction; relate the strategy to a written method and explain the reasoning used.",,,
NBT,Number and Operations in Base Ten,5.NBT.B,Perform operations with multi-digit whole numbers and with decimals to hundredths.,5.NBT.7-2,"Subtract two decimals to hundredths, using concrete models or drawings and strategies based on place value, properties of operations, and/or the relationship between addition and subtraction; relate the strategy to a written method and explain the reasoning used.",,,
NBT,Number and Operations in Base Ten,5.NBT.B,Perform operations with multi-digit whole numbers and with decimals to hundredths.,5.NBT.7-3,"Multiply tenths with tenths or tenths with hundredths, using concrete models or drawings and strategies based on place value, properties of operations, and/or the relationship between addition and subtraction; relate the strategy to a written method and explain the reasoning used.",,,
NBT,Number and Operations in Base Ten,5.NBT.B,Perform operations with multi-digit whole numbers and with decimals to hundredths.,5.NBT.7-4,"Divide in problems involving tenths and/or hundredths, using concrete models or drawings and strategies based on place value, properties of operations, and/or the relationship between addition and subtraction; relate the strategy to a written method and explain the reasoning used.",,,
MD,Measurement and Data,5.MD.C,Geomeric measurement: understand concepts of volume and relate volume to multiplication and to addition.,5.MD.3,"Recognize volume as an attribute of solid figures and understand concepts of volume measurement. 
a. A cube with side length 1 unit, called a _unit cube,î is said to have _one cubic unitî of volume, and can be used to measure volume.",,,
MD,Measurement and Data,5.MD.C,Geomeric measurement: understand concepts of volume and relate volume to multiplication and to addition.,5.MD.4,"Measure volumes by counting unit cubes, using cubic cm, cubic in, cubic ft, and improvised units.",,,
MD,Measurement and Data,5.MD.C,Geomeric measurement: understand concepts of volume and relate volume to multiplication and to addition.,5.MD.5b,"Relate volume to the operations of multiplication and addition and solve real world and mathematical problems involving volume.  
b. Apply the formulas V = l _ w _ h and V = B _ h for rectangular prisms to find volumes of right rectangular prisms with whole-number edge lengths in the context of solving real world and mathematical problems.",,,
MD,Measurement and Data,5.MD.C,Geomeric measurement: understand concepts of volume and relate volume to multiplication and to addition.,5.MD.5c,"Relate the operations of multiplication and addition and solve real world and mathematical problems involving volume.
c. Recognize volume as additive. Find volumes of solid figures composed of two non-overlapping right rectangular prisms by adding the volumes of the non-overlapping parts, applying this technique to solve real world problems.",,,
NF,Number and Operations-Fractions,5.NF.A,Use equivalent fractions as a strategy to add and subtract fractions.,5.NF.1-1,"Add two fractions with unlike denominators, or subtract two fractions with unlike denominators, by replacing given fractions with equivalent fractions in such a way as to produce an equivalent sum or difference of fractions with like denominators. For example, 2/3 + 5/4 = 8/12 + 15/12 = 23/12. (In general, a/b + c/d = (ad+bc)/bd.) ",,,
NF,Number and Operations-Fractions,5.NF.A,Use equivalent fractions as a strategy to add and subtract fractions.,5.NF.1-2,"Add three fractions with no two denominators equal by replacing given fractions with equivalent fractions in such a way as to produce an equivalent sum of fractions with like denominators. For example, 1/2 + 1/3 + 1/4 = (3/6 + 2/6) + 1/4 = 5/6 + 1/4 = 10/12 + 3/12 = 13/12 or alternatively 1/2 + 1/3 + 1/4 = 6/12 + 4/12 + 3/12 = 13/12. ",,,
NF,Number and Operations-Fractions,5.NF.A,Use equivalent fractions as a strategy to add and subtract fractions.,5.NF.1-3,"Compute the result of adding two fractions and subtracting a third, where no two denominators are equal, by replacing given fractions with equivalent fractions in such a way as to produce an equivalent sum or difference of fractions with like denominators. For example, 1/2 + 1/3 _ 1/4 or 7/8 _ 1/3 + 1/2. ",,,
NF,Number and Operations-Fractions,5.NF.A,Use equivalent fractions as a strategy to add and subtract fractions.,5.NF.1-4,"Add two mixed numbers with unlike denominators, expressing the result as a mixed number, by replacing given fractions with equivalent fractions in such a way as to produce an equivalent sum with like denominators. For example, 3 1/2 + 2 2/3 = (3 + 2) + (1/2 + 2/3) = 5 + (3/6 + 4/6) = 5 + 7/6 = 5 + 1 + 1/6 = 6 1/6. ",,,
NF,Number and Operations-Fractions,5.NF.A,Use equivalent fractions as a strategy to add and subtract fractions.,5.NF.1-5,"Subtract two mixed numbers with unlike denominators, expressing the result as a mixed number, by replacing given fractions with equivalent fractions in such a way as to produce an equivalent difference with like denominators. ",,,
NF,Number and Operations-Fractions,5.NF.A,Use equivalent fractions as a strategy to add and subtract fractions.,5.NF.2-1,"Solve word problems involving addition and subtraction of fractions referring to the same whole, in cases of unlike denominators, e.g., by using visual fraction models or equations to represent the problem.",,,
NF,Number and Operations-Fractions,5.NF.A,Use equivalent fractions as a strategy to add and subtract fractions.,5.NF.2-2,"Use benchmark fractions and number sense of fractions to estimate mentally and assess the reasonableness of answers to word problems involving addition and subtraction of fractions referring to the same whole in cases of unlike denominators. For example, recognize an incorrect result 2/5 + 1/2 = 3/7, by observing that 3/7 < 1/2.",,,
NF,Number and Operations-Fractions,5.NF.B1,Apply and extend previous understandings of multipliction and division to multiply and divide fractions.  [Includes division only: 5.NF.3 and 5.NF.7.],5.NF.3-1,Interpret a fraction as division of the numerator by the denominator (a/b = a Ä b). ,,,
NF,Number and Operations-Fractions,5.NF.B1,Apply and extend previous understandings of multipliction and division to multiply and divide fractions.  [Includes division only: 5.NF.3 and 5.NF.7.],5.NF.3-2,"Solve word problems involving division of whole numbers leading to answers in the form of fractions or mixed numbers, e.g., by using visual fraction models or equations to represent the problem.__For example, interpret 3/4 as the result of dividing 3 by 4, noting that 3/4 multiplied by 4 equals 3, and that when 3 wholes are shared equally among 4 people each person has a share of size 3/4. If 9 people want to share a 50-pound sack of rice equally by weight, how many pounds of rice should each person get? Between what two whole numbers does your answer lie?",,,
NF,Number and Operations-Fractions,5.NF.B1,Apply and extend previous understandings of multipliction and division to multiply and divide fractions.  [Includes division only: 5.NF.3 and 5.NF.7.],5.NF.7a,"Apply and extend previous understandings of division to divide unit fractions by whole numbers and whole numbers by unit fractions. 
a. Interpret division of a unit fraction by a non-zero whole number, and compute such quotients. For example, create a story context for (1/3) Ä 4, and use a visual fraction model to show the quotient. Use the relationship between multiplication and division to explain that (1/3) Ä 4 = 1/12 because (1/12) _ 4 = 1/3.",,,
NF,Number and Operations-Fractions,5.NF.B1,Apply and extend previous understandings of multipliction and division to multiply and divide fractions.  [Includes division only: 5.NF.3 and 5.NF.7.],5.NF.7b,"Apply and extend previous understandings of division to divide unit fractions by whole numbers and whole numbers by unit fractions.
b. Interpret division of a whole number by a unit fraction, and compute such quotients. For example, create a story context for 4 Ä (1/5), and use a visual fraction model to show the quotient. Use the relationship between multiplication and division to explain that 4 Ä (1/5) = 20 because 20 _ (1/5) = 4.",,,
NF,Number and Operations-Fractions,5.NF.B1,Apply and extend previous understandings of multipliction and division to multiply and divide fractions.  [Includes division only: 5.NF.3 and 5.NF.7.],5.NF.7c,"Apply and extend previous understandings of division to divide unit fractions by whole numbers and whole numbers by unit fractions. 
c. Solve real world problems involving division of unit fractions by non-zero whole numbers and division of whole numbers by unit fractions, e.g., by using visual fraction models and equations to represent the problem. For example, how much chocolate will each person get if 3 people share 1/2 lb of chocolate equally? How many 1/3-cup servings are in 2 cups of raisins?",,,
NF,Number and Operations-Fractions,5.NF.B2,"Apply and extend previous understandings of multipliction and division to multiply and divide fractions. [Includes multiplication only: 5.NF.4, 5.NF.5, and 5.NF.6.]",5.NF.4a-1,"Apply and extend previous understandings of multiplication to multiply a fraction or whole number by a fraction.  
a. For a whole number q, interpret the product (a/b) _ q as a parts of a partition of q into b equal parts; equivalently, as the result of a sequence of operations a _ q Ä b. For example, use a visual fraction model to show (2/3) _ 4 = 8/3, and create a story context for this equation. Do the same with (2/3) _ (4/5) = 8/15. (In general, (a/b) _ (c/d) = ac/bd.)",,,
NF,Number and Operations-Fractions,5.NF.B2,"Apply and extend previous understandings of multipliction and division to multiply and divide fractions. [Includes multiplication only: 5.NF.4, 5.NF.5, and 5.NF.6.]",5.NF.4a-2,"Apply and extend previous understandings of multiplication to multiply a fraction or whole number by a fraction. 
a. For a fraction q, interpret the product (a/b) _ q as a parts of a partition of q into b equal parts; equivalently, as the result of a sequence of operations a _ q Ä b. For example, use a visual fraction model to show (2/3) _ 4 = 8/3, and create a story context for this equation. Do the same with (2/3) _ (4/5) = 8/15. (In general, (a/b) _ (c/d) = ac/bd.)",,,
NF,Number and Operations-Fractions,5.NF.B2,"Apply and extend previous understandings of multipliction and division to multiply and divide fractions. [Includes multiplication only: 5.NF.4, 5.NF.5, and 5.NF.6.]",5.NF.4b,"Apply and extend previous understandings of multiplication to multiply a fraction or whole number by a fraction. 
b. Multiply fractional side lengths to find areas of rectangles, and represent fraction products as rectangular areas.",,,
NF,Number and Operations-Fractions,5.NF.B2,"Apply and extend previous understandings of multipliction and division to multiply and divide fractions. [Includes multiplication only: 5.NF.4, 5.NF.5, and 5.NF.6.]",5.NF.5a,"Interpret multiplication as scaling (resizing), by: 
a. Comparing the size of a product to the size of one factor on the basis of the size of the other factor, without performing the indicated multiplication.",,,
NF,Number and Operations-Fractions,5.NF.B2,"Apply and extend previous understandings of multipliction and division to multiply and divide fractions. [Includes multiplication only: 5.NF.4, 5.NF.5, and 5.NF.6.]",5.NF.6-1,"Solve real world problems involving multiplication of fractions, e.g., by using visual fraction models or equations to represent the problem.",,,
NF,Number and Operations-Fractions,5.NF.B2,"Apply and extend previous understandings of multipliction and division to multiply and divide fractions. [Includes multiplication only: 5.NF.4, 5.NF.5, and 5.NF.6.]",5.NF.6-2,"Solve real world problems involving multiplication of fractions and mixed numbers, e.g., by using visual fraction models or equations to represent the problem.",,,
G,Geometry,5.G.A,Graph points on the coordinate plane to solve real-world and mathematical problems.,5.G.1,"Use a pair of perpendicular number lines, called axes, to define a coordinate system, with the intersection of the lines (the origin) arranged to coincide with the 0 on each line and a given point in the plane located by using an ordered pair of numbers, called its coordinates. Understand that the first number indicates how far to travel from the origin in the direction of one axis, and the second number indicates how far to travel in the direction of the second axis, with the convention that the names of the two axes and the coordinates correspond (e.g.,_x-axis and_x-coordinate,_y-axis and_y-coordinate).",,,
G,Geometry,5.G.A,Graph points on the coordinate plane to solve real-world and mathematical problems.,5.G.2,"Represent real world and mathematical problems by graphing points in the first quadrant of the coordinate plane, and interpret coordinate values of points in the context of the situation.",,,
NS,The Number System,6.NS.A,Apply and extend previous understandings of multipliction and division to divide fractions by fractions.,6.NS.1,"Solve word problems involving division of fractions by fractions. For example, How much chocolate will each person get if 3 people share 1/2 lb of chocolate equally? How many 3/4-cup servings are in 2/3 of a cup of yogurt? How wide is a rectangular strip of land with length 3/4 mi and area 1/2 square mi?",,,
NS,The Number System,6.NS.C1,"Apply and extend previous understandings of numbers to the system of rational numbers.  [Includes pos./neg. numbers, the number line, and the coordinate plane: 6.NS.5 and 6.NS.6.]",6.NS.5,"Understand that positive and negative numbers are used together to describe quantities having opposite directions or values (e.g., temperature above/below zero, elevation above/below sea level, credits/debits, positive/negative electric charge); use positive and negative numbers to represent quantities in real-world contexts, explaining the meaning of 0 in each situation.",,,
NS,The Number System,6.NS.C1,"Apply and extend previous understandings of numbers to the system of rational numbers.  [Includes pos./neg. numbers, the number line, and the coordinate plane: 6.NS.5 and 6.NS.6.]",6.NS.6a,"Understand a rational number as a point on the number line. Extend number line diagrams and coordinate axes familiar from previous grades to represent points on the line and in the plane with negative number coordinates.
a. Recognize opposite signs of numbers as indicating locations on opposite sides of 0 on the number line; recognize that the opposite of the opposite of a number is the number itself, e.g., _(_3) = 3, and that 0 is its own opposite.",,,
NS,The Number System,6.NS.C1,"Apply and extend previous understandings of numbers to the system of rational numbers.  [Includes pos./neg. numbers, the number line, and the coordinate plane: 6.NS.5 and 6.NS.6.]",6.NS.6b-1,"Understand a rational number as a point on the number line. Extend number line diagrams and coordinate axes familiar from previous grades to represent points on the line and in the plane with negative number coordinates.
b. Understand signs of numbers in ordered pairs as indicating locations in quadrants of the coordinate plane.",,,
NS,The Number System,6.NS.C1,"Apply and extend previous understandings of numbers to the system of rational numbers.  [Includes pos./neg. numbers, the number line, and the coordinate plane: 6.NS.5 and 6.NS.6.]",6.NS.6b-2,"Understand a rational number as a point on the number line. Extend number line diagrams and coordinate axes familiar from previous grades to represent points on the line and in the plane with negative number coordinates.
b.  Recognize that when two ordered pairs differ only by signs, the locations of the points are related by reflections across one or both axes.",,,
NS,The Number System,6.NS.C1,"Apply and extend previous understandings of numbers to the system of rational numbers.  [Includes pos./neg. numbers, the number line, and the coordinate plane: 6.NS.5 and 6.NS.6.]",6.NS.6c-1,"Understand a rational number as a point on the number line. Extend number line diagrams and coordinate axes familiar from previous grades to represent points on the line and in the plane with negative number coordinates.
c. Find and position integers and other rational numbers on a horizontal or vertical number line diagram.",,,
NS,The Number System,6.NS.C1,"Apply and extend previous understandings of numbers to the system of rational numbers.  [Includes pos./neg. numbers, the number line, and the coordinate plane: 6.NS.5 and 6.NS.6.]",6.NS.6c-2,"Understand a rational number as a point on the number line. Extend number line diagrams and coordinate axes familiar from previous grades to represent points on the line and in the plane with negative number coordinates.
c. Find and position pairs of integers and other rational numbers on a coordinate plane.",,,
NS,The Number System,6.NS.C2,Apply and extend previous understandings of numbers to the system of rational numbers.  [Includes ordering and absolute value: 6.NS.7 and 6.NS.8.],6.NS.7a,"Understand ordering and absolute value of rational numbers.
a. Interpret statements of inequality as statements about the relative position of two numbers on a number line diagram. For example, interpret _3 > _7 as a statement that _3 is located to the right of _7 on a number line oriented from left to right.",,,
NS,The Number System,6.NS.C2,Apply and extend previous understandings of numbers to the system of rational numbers.  [Includes ordering and absolute value: 6.NS.7 and 6.NS.8.],6.NS.7b,"Understand ordering and absolute value of rational numbers.
b. Write, interpret, and explain statements of order for rational numbers in real-world contexts. For example, write _3çC > _7çC to express the fact that _3çC is warmer than _7çC.",,,
NS,The Number System,6.NS.C2,Apply and extend previous understandings of numbers to the system of rational numbers.  [Includes ordering and absolute value: 6.NS.7 and 6.NS.8.],6.NS.7c-1,"Understand ordering and absolute value of rational numbers.
c. Understand the absolute value of a rational number as its distance from 0 on the number line.",,,
NS,The Number System,6.NS.C2,Apply and extend previous understandings of numbers to the system of rational numbers.  [Includes ordering and absolute value: 6.NS.7 and 6.NS.8.],6.NS.7c-2,"Understand ordering and absolute value of rational numbers.
c. Interpret absolute value as magnitude for a positive or negative quantity in a real-world situation. For example, for an account balance of _30 dollars, write |_30| = 30 to describe the size of the debt in dollars.",,,
NS,The Number System,6.NS.C2,Apply and extend previous understandings of numbers to the system of rational numbers.  [Includes ordering and absolute value: 6.NS.7 and 6.NS.8.],6.NS.7d,"Understand ordering and absolute value of rational numbers.
d. Distinguish comparisons of absolute value from statements about order. For example, recognize that an account balance less than _30 dollars represents a debt greater than 30 dollars.",,,
NS,The Number System,6.NS.C2,Apply and extend previous understandings of numbers to the system of rational numbers.  [Includes ordering and absolute value: 6.NS.7 and 6.NS.8.],6.NS.8,Solve real-world and mathematical problems by graphing points in all four quadrants of the coordinate plane. Include use of coordinates and absolute value to find distances between points with the same first coordinate or the same second coordinate.,,,
RP,Ratios and Proportional Relationships,6.RP.A1,Understand ratio concepts and use ratio reasoning to solve problems.  [Includes the concept of ratio and unit rate: 6.RP.1 and 6.RP.2.] ,6.RP.1,"Understand the concept of a ratio and use ratio language to describe a ratio relationship between two quantities. For example, _The ratio of wings to beaks in the bird house at the zoo was 2:1, because for every 2 wings there was 1 beak.î _For every vote candidate A received, candidate C received nearly three votes.î",,,
RP,Ratios and Proportional Relationships,6.RP.A1,Understand ratio concepts and use ratio reasoning to solve problems.  [Includes the concept of ratio and unit rate: 6.RP.1 and 6.RP.2.] ,6.RP.2,"Understand the concept of a unit rate a/b associated with a ratio a:b with b _ 0, and use rate language in the context of a ratio relationship. For example, _This recipe has a ratio of 3 cups of flour to 4 cups of sugar, so there is 3/4 cup of flour for each cup of sugar.î _We paid $75 for 15 hamburgers, which is a rate of $5 per hamburger.î",,,
RP,Ratios and Proportional Relationships,6.RP.A2,Understand ratio concepts and use ratio reasoning to solve problems.  [Includes using ratio and rate reasoning to solve problems: 6.RP.3.],6.RP.3a,"Use ratio and rate reasoning to solve real-world and mathematical problems, e.g., by reasoning about tables of equivalent ratios, tape diagrams, double number line diagrams, or equations.
a. Make tables of equivalent ratios relating quantities with whole-number measurements, find missing values in the tables, and plot the pairs of values on the coordinate plane. Use tables to compare ratios.",,,
RP,Ratios and Proportional Relationships,6.RP.A2,Understand ratio concepts and use ratio reasoning to solve problems.  [Includes using ratio and rate reasoning to solve problems: 6.RP.3.],6.RP.3b,"Use ratio and rate reasoning to solve real-world and mathematical problems, e.g., by reasoning about tables of equivalent ratios, tape diagrams, double number line diagrams, or equations.
b. Solve unit rate problems including those involving unit pricing and constant speed. For example, if it took 7 hours to mow 4 lawns, then at that rate, how many lawns could be mowed in 35 hours? At what rate were lawns being mowed?",,,
RP,Ratios and Proportional Relationships,6.RP.A2,Understand ratio concepts and use ratio reasoning to solve problems.  [Includes using ratio and rate reasoning to solve problems: 6.RP.3.],6.RP.3c-1,"Use ratio and rate reasoning to solve real-world and mathematical problems, e.g., by reasoning about tables of equivalent ratios, tape diagrams, double number line diagrams, or equations.
c. Find a percent of a quantity as a rate per 100 (e.g., 30% of a quantity means 30/100 times the quantity).",,,
RP,Ratios and Proportional Relationships,6.RP.A2,Understand ratio concepts and use ratio reasoning to solve problems.  [Includes using ratio and rate reasoning to solve problems: 6.RP.3.],6.RP.3c-2,"Use ratio and rate reasoning to solve real-world and mathematical problems, e.g., by reasoning about tables of equivalent ratios, tape diagrams, double number line diagrams, or equations.
c. Solve problems involving finding the whole, given a part and the percent.",,,
RP,Ratios and Proportional Relationships,6.RP.A2,Understand ratio concepts and use ratio reasoning to solve problems.  [Includes using ratio and rate reasoning to solve problems: 6.RP.3.],6.RP.3d,"Use ratio and rate reasoning to solve real-world and mathematical problems, e.g., by reasoning about tables of equivalent ratios, tape diagrams, double number line diagrams, or equations.
d.  Use ratio reasoning to convert measurement units; manipulate and transform units appropriately when multiplying or dividing quantities.",,,
EE,Expressions and Equations,6.EE.A,Apply and extend previous understandings of arithmetic to algebraic expressions.,6.EE.1-1,Write numerical expressions involving whole-number exponents.,,,
EE,Expressions and Equations,6.EE.A,Apply and extend previous understandings of arithmetic to algebraic expressions.,6.EE.1-2,Evaluate numerical expressions involving whole-number exponents.,,,
EE,Expressions and Equations,6.EE.A,Apply and extend previous understandings of arithmetic to algebraic expressions.,6.EE.2a,"Write, read, and evaluate expressions in which letters stand for numbers.
a. Write expressions that record operations with numbers and with letters standing for numbers. For example, express the calculation _Subtract y from 5î as 5 _ y.",,,
EE,Expressions and Equations,6.EE.A,Apply and extend previous understandings of arithmetic to algebraic expressions.,6.EE.2b,"Write, read, and evaluate expressions in which letters stand for numbers.
b. Identify parts of an expression using mathematical terms (sum, term, product, factor, quotient, coefficient); view one or more parts of an expression as a single entity. For example, describe the expression 2 (8 + 7) as a product of two factors; view (8 + 7) as both a single entity and a sum of two terms.",,,
EE,Expressions and Equations,6.EE.A,Apply and extend previous understandings of arithmetic to algebraic expressions.,6.EE.2c-1,"Write, read, and evaluate expressions in which letters stand for numbers.
c. Evaluate expressions at specific values of their variables. Perform arithmetic operations, including those involving whole-number exponents, in the conventional order when there are no parentheses to specify a particular order (Order of Operations). ",,,
EE,Expressions and Equations,6.EE.A,Apply and extend previous understandings of arithmetic to algebraic expressions.,6.EE.2c-2,"Write, read, and evaluate expressions in which letters stand for numbers.
c. Evaluate expressions that arise from formulas used in real-world problems at specific values of their variables. For example, use the formulas V = s^3 and A = 6s^2 to find the volume and surface area of a cube with sides of length s = 1/2.",,,
EE,Expressions and Equations,6.EE.A,Apply and extend previous understandings of arithmetic to algebraic expressions.,6.EE.3,"Apply the properties of operations to generate equivalent expressions. For example, apply the distributive property to the expression 3(2 + x) to produce the equivalent expression 6 + 3x; apply the distributive property to the expression 24x + 18y to produce the equivalent expression 6(4x + 3y); apply properties of operations to y + y + y to produce the equivalent expression 3y.",,,
EE,Expressions and Equations,6.EE.A,Apply and extend previous understandings of arithmetic to algebraic expressions.,6.EE.4,"Identify when two expressions are equivalent (i.e., when the two expressions name the same number regardless of which value is substituted into them). For example, the expressions y + y + y and 3y are equivalent because they name the same number regardless of which number y stands for.",,,
EE,Expressions and Equations,6.EE.B,Reason about and solve one-variable equations and inequalities.,6.EE.5-1,"Understand solving an equation as a process of answering a question: which values from a specified set, if any, make the equation true?",,,
EE,Expressions and Equations,6.EE.B,Reason about and solve one-variable equations and inequalities.,6.EE.5-2,Use substitution to determine whether a given number in a specified set makes an inequality true.,,,
EE,Expressions and Equations,6.EE.B,Reason about and solve one-variable equations and inequalities.,6.EE.6,"Use variables to represent numbers and write expressions when solving a real-world or mathematical problem; understand that a variable can represent an unknown number, or, depending on the purpose at hand, any number in a specified set.",,,
EE,Expressions and Equations,6.EE.B,Reason about and solve one-variable equations and inequalities.,6.EE.7,"Solve real-world and mathematical problems by writing and solving equations of the form x + p = q and px = q for cases in which p, q and x are all nonnegative rational numbers.",,,
EE,Expressions and Equations,6.EE.B,Reason about and solve one-variable equations and inequalities.,6.EE.8,Write an inequality of the form x > c or x < c to represent a constraint or condition in a real-world or mathematical problem. Recognize that inequalities of the form x > c or x < c have infinitely many solutions; represent solutions of such inequalities on number line diagrams.,,,
EE,Expressions and Equations,6.EE.C,Represent and analyze quantitative relationships between dependent and independent variables. ,6.EE.9,"Use variables to represent two quantities in a real-world problem that change in relationship to one another; write an equation to express one quantity, thought of as the dependent variable, in terms of the other quantity, thought of as the independent variable. Analyze the relationship between the dependent and independent variables using graphs and tables, and relate these to the equation. For example, in a problem involving motion at constant speed, list and graph ordered pairs of distances and times, and write the equation d = 65t to represent the relationship between distance and time.",,,
NS,The Number System,7.NS.A1,"Apply and extend previous understandings of operations with fractions to add, subtract, multiply, and divide rational numbers.  [Includes 7.NS.1: addition/subtraction.]",7.NS.1c,"Apply and extend previous understandings of addition and subtraction to add and subtract rational numbers; represent addition and subtraction on a horizontal or vertical number line diagram.  
c. Understand subtraction of rational numbers as adding the additive inverse, p_q=p+(_q). Apply this principle in real world contexts. ",,,
NS,The Number System,7.NS.A1,"Apply and extend previous understandings of operations with fractions to add, subtract, multiply, and divide rational numbers.  [Includes 7.NS.1: addition/subtraction.]",7.NS.1d,"Apply and extend previous understandings of addition and subtraction to add and subtract rational numbers; represent addition and subtraction on a horizontal or vertical number line diagram. 
d. Apply properties of operations as strategies to add and subtract rational numbers.",,,
NS,The Number System,7.NS.A2,"Apply and extend previous understandings of operations with fractions to add, subtract, multiplly, and divide rational numbers.  [Includes 7.NS.2 and 7.NS.3: multiplication, division, and solving problems involving the four operations with rational numbers.]",7.NS.2a-1,"Apply and extend previous understandings of multiplication and division and of fractions to multiply and divide rational numbers. 
a. Understand that multiplication is extended from fractions to rational numbers by requiring that operations continue to satisfy the properties of operations, particularly the distributive property, leading to products such as (_1)(_1)=1 and the rules for multiplying signed numbers. ",,,
NS,The Number System,7.NS.A2,"Apply and extend previous understandings of operations with fractions to add, subtract, multiplly, and divide rational numbers.  [Includes 7.NS.2 and 7.NS.3: multiplication, division, and solving problems involving the four operations with rational numbers.]",7.NS.2a-2,"Apply and extend previous understandings of multiplication and division and of fractions to multiply and divide rational numbers. 
a. Interpret products of rational numbers by describing real-world contexts.",,,
NS,The Number System,7.NS.A2,"Apply and extend previous understandings of operations with fractions to add, subtract, multiplly, and divide rational numbers.  [Includes 7.NS.2 and 7.NS.3: multiplication, division, and solving problems involving the four operations with rational numbers.]",7.NS.2b-1,"Apply and extend previous understandings of multiplication and division and of fractions to multiply and divide rational numbers.
b. Understand that integers can be divided, provided that the divisor is not zero, and every quotient of integers (with non-zero divisor) is a rational number. If p and q are integers, then _(p/q)=(_p)/q=p/(_q).",,,
NS,The Number System,7.NS.A2,"Apply and extend previous understandings of operations with fractions to add, subtract, multiplly, and divide rational numbers.  [Includes 7.NS.2 and 7.NS.3: multiplication, division, and solving problems involving the four operations with rational numbers.]",7.NS.2b-2,"Apply and extend previous understandings of multiplication and division and of fractions to multiply and divide rational numbers.
b. Interpret quotients of rational numbers by describing real-world contexts.",,,
NS,The Number System,7.NS.A2,"Apply and extend previous understandings of operations with fractions to add, subtract, multiplly, and divide rational numbers.  [Includes 7.NS.2 and 7.NS.3: multiplication, division, and solving problems involving the four operations with rational numbers.]",7.NS.2c,"Apply and extend previous understandings of multiplication and division and of fractions to multiply and divide rational numbers.
c. Apply properties of operations as strategies to multiply and divide rational numbers.",,,
NS,The Number System,7.NS.A2,"Apply and extend previous understandings of operations with fractions to add, subtract, multiplly, and divide rational numbers.  [Includes 7.NS.2 and 7.NS.3: multiplication, division, and solving problems involving the four operations with rational numbers.]",7.NS.3,Solve real-world and mathematical problems involving the four operations with rational numbers.,,,
RP,Ratios and Proportional Relationships,7.RP.A,Analyze proportional relationships and use them to solve real-world and mathematical problems.,7.RP.1,"Compute unit rates associated with ratios of fractions, including ratios of lengths, areas and other quantities measured in like or different units. For example, if a person walks 1/2 mile in each 1/4 hour, compute the unit rate as the complex fraction 1/2 / 1/4 miles per hour, equivalently 2 miles per hour.",,,
RP,Ratios and Proportional Relationships,7.RP.A,Analyze proportional relationships and use them to solve real-world and mathematical problems.,7.RP.2a,"Recognize and represent proportional relationships between quantities. 
a. Decide whether two quantities are in a proportional relationship, e.g., by testing for equivalent ratios in a table or graphing on a coordinate plane and observing whether the graph is a straight line through the origin.",,,
RP,Ratios and Proportional Relationships,7.RP.A,Analyze proportional relationships and use them to solve real-world and mathematical problems.,7.RP.2b,"Recognize and represent proportional relationships between quantities.  
b. Identify the constant of proportionality (unit rate) in tables, graphs, equations, diagrams, and verbal descriptions of proportional relationships. ",,,
RP,Ratios and Proportional Relationships,7.RP.A,Analyze proportional relationships and use them to solve real-world and mathematical problems.,7.RP.2c,"Recognize and represent proportional relationships between quantities:
c. Represent proportional relationships by equations. For example, if total cost t is proportional to the number n of items purchased at a constant price p, the relationship between the total cost and the number of items can be expressed as t = pn.",,,
RP,Ratios and Proportional Relationships,7.RP.A,Analyze proportional relationships and use them to solve real-world and mathematical problems.,7.RP.2d,"Recognize and represent proportional relationships between quantities.
d. Explain what a point (x, y) on the graph of a proportional relationships means in terms of the situation, with special attention to the points (0, 0) and (1, r) where r is the unit rate.",,,
RP,Ratios and Proportional Relationships,7.RP.A,Analyze proportional relationships and use them to solve real-world and mathematical problems.,7.RP.3-1,Use proportional relationships to solve multi-step ratio  problems.,,,
RP,Ratios and Proportional Relationships,7.RP.A,Analyze proportional relationships and use them to solve real-world and mathematical problems.,7.RP.3-2,"Use proportional relationships to solve multi-step  percent problems. Examples: simple interest, tax, markups and markdowns, gratuities and commissions, fees, percent increase and decrease, percent error.",,,
EE,Expressions and Equations,7.EE.A,Use properties of operations to generate equivalent expressions.,7.EE.1,"Apply properties of operations as strategies to add, subtract, factor, and expand linear expressions with rational coefficients.",,,
EE,Expressions and Equations,7.EE.A,Use properties of operations to generate equivalent expressions.,7.EE.2,"Understand that rewriting an expression in different forms in a problem context can shed light on the problem and how the quantities in it are related. For example, a + 0.05a = 1.05a means that _increase by 5%î is the same as _multiply by 1.05.î",,,
EE,Expressions and Equations,7.EE.B,Solve real-life and mathematical problems using numerical and algebraic expressions and equations. ,7.EE.3,"Solve multi-step real-life and mathematical problems posed with positive and negative rational numbers in any form (whole numbers, fractions, and decimals), using tools strategically. Apply properties of operations to calculate with numbers in any form; convert between forms as appropriate; and assess the reasonableness of answers using mental computation and estimation strategies. For example: If a woman making $25 an hour gets a 10% raise, she will make an additional 1/10 of her salary an hour, or $2.50, for a new salary of $27.50. If you want to place a towel bar 9 3/4 inches long in the center of a door that is 27 1/2 inches wide, you will need to place the bar about 9 inches from each edge; this estimate can be used as a check on the exact computation.",,,
EE,Expressions and Equations,7.EE.B,Solve real-life and mathematical problems using numerical and algebraic expressions and equations. ,7.EE.4a-1,"Use variables to represent quantities in a real-world or mathematical problem, and construct simple equations and inequalities to solve problems by reasoning about the quantities. 
a. Solve word problems leading to equations of the form px+q=r and p(x+q)=r, where p, q, and r are specific rational numbers.  ",,,
EE,Expressions and Equations,7.EE.B,Solve real-life and mathematical problems using numerical and algebraic expressions and equations. ,7.EE.4a-2,"Use variables to represent quantities in a real-world or mathematical problem, and construct simple equations and inequalities to solve problems by reasoning about the quantities.
a. Fluently solve equations of the form px+q=r and p(x+q)=r, where p, q, and r are specific rational numbers.",,,
EE,Expressions and Equations,8.EE.A,Work with radicals and integer exponents.,8.EE.1,"Know and apply the properties of integer exponents to generate equivalent numerical expressions. For example, 3^2 x 3^(_5) = 1/3^3 = 1/27.",,,
EE,Expressions and Equations,8.EE.A,Work with radicals and integer exponents.,8.EE.2,"Use square root and cube root symbols to represent solutions to equations of the form x^2 = p and x^3 = p, where p is a positive rational number. Evaluate square roots of small perfect squares and cube roots of small perfect cubes. Know that Õ2 is irrational.",,,
EE,Expressions and Equations,8.EE.A,Work with radicals and integer exponents.,8.EE.3,"Use numbers expressed in the form of a single digit times an integer power of 10 to estimate very large or very small quantities and to express how many times as much one is than the other. For example, estimate the population of the United States as 3x10^8 and the population of the world as 7x10^9, and determine that the world population is more than 20 times larger.",,,
EE,Expressions and Equations,8.EE.A,Work with radicals and integer exponents.,8.EE.4-1,"Perform operations with numbers expressed in scientific notation, including problems where both decimal and scientific notation are used.",,,
EE,Expressions and Equations,8.EE.A,Work with radicals and integer exponents.,8.EE.4-2,"Use scientific notation and choose units of appropriate size for measurements of very large or very small quantities (e.g., use millimeters per year for seafloor spreading). Interpret scientific notation that has been generated by technology.",,,
EE,Expressions and Equations,8.EE.B,"Understand the connections between proportional relationships, lines, and linear equations.",8.EE.5-1,"Graph proportional relationships, interpreting the unit rate as the slope of the graph.",,,
EE,Expressions and Equations,8.EE.B,"Understand the connections between proportional relationships, lines, and linear equations.",8.EE.5-2,"Compare two different proportional relationships represented in different ways. For example, compare a distance-time graph to a distance-time equation to determine which of two moving objects has a greater speed.",,,
EE,Expressions and Equations,8.EE.B,"Understand the connections between proportional relationships, lines, and linear equations.",8.EE.6,Use similar triangles to explain why the slope m is the same between any two distinct points on a non-vertical line in the coordinate plane.,,,
EE,Expressions and Equations,8.EE.C,Analyze and solve linear equations and pairs of simultaneous linear equations.,8.EE.7b,"Solve linear equations in one variable.
b. Solve linear equations with rational number coefficients, including equations whose solutions require expanding expressions using the distributive property and collecting like terms.",,,
EE,Expressions and Equations,8.EE.C,Analyze and solve linear equations and pairs of simultaneous linear equations.,8.EE.8a,"Analyze and solve pairs of simultaneous linear equations. 
a. Understand that solutions to a system of two linear equations in two variables correspond to points of intersection of their graphs, because points of intersection satisfy both equations simultaneously.",,,
EE,Expressions and Equations,8.EE.C,Analyze and solve linear equations and pairs of simultaneous linear equations.,8.EE.8b-1,"Analyze and solve pairs of simultaneous linear equations. 
b. Solve systems of two linear equations in two variables algebraically.",,,
EE,Expressions and Equations,8.EE.C,Analyze and solve linear equations and pairs of simultaneous linear equations.,8.EE.8b-2,"Analyze and solve pairs of simultaneous linear equations. 
b. Estimate solutions [to systems of two linear equations in two variables] by graphing the equations.",,,
EE,Expressions and Equations,8.EE.C,Analyze and solve linear equations and pairs of simultaneous linear equations.,8.EE.8b-3,"Analyze and solve pairs of simultaneous linear equations. 
b. Solve simple cases [of systems of two linear equations in two variables] by inspection. For example, 3x + 2y = 5 and 3x + 2y = 6 have no solution because 3x + 2y cannot simultaneously be 5 and 6.",,,
EE,Expressions and Equations,8.EE.C,Analyze and solve linear equations and pairs of simultaneous linear equations.,8.EE.8c,"Analyze and solve pairs of simultaneous liner equations. 
c. Solve real-world and mathematical problems leading to two linear equations in two variables. For example, given coordinates for two pairs of points, determine whether the line through the first pair of points intersects the line through the second pair.",,,
EE,Expressions and Equations,A-REI.B,Solve equations and inequalities in one variable.,A-REI.3,"Solve linear equations and inequalities in one variable, including equations with coefficients represented by letters.",,,
EE,Expressions and Equations,A-REI.D,Represent and solve equations and inequalities graphically.,A.REI.11,"Find the solutions of where the graphs of the equations y = f ( x) and  y = g ( x) intersect, e.g. using technology to graph the functions, make tables of values or find successive approximations. Limit  f ( x) and/or g ( x) to linear and quadratic functions.",,,
EE,Expressions and Equations,A-REI.D,Represent and solve equations and inequalities graphically.,A.REI.11-1a,"Find the solutions of where the graphs of the equations y = f ( x) and  y = g ( x) intersect, e.g. using technology to graph the functions, make tables of values or find successive approximations. Limit  f ( x) and/or g ( x) to linear and quadratic functions.",,,
F,Functions,8.F.A,"Define, evaluate, and compare functions.",8.F.1-1,Understand that a function is a rule that assigns to each input exactly one output.,,,
F,Functions,8.F.A,"Define, evaluate, and compare functions.",8.F.1-2,[Understand that] the graph of a function is the set of ordered pairs consisting of an input and the corresponding output.,,,
F,Functions,8.F.A,"Define, evaluate, and compare functions.",8.F.2,"Compare properties of two functions each represented in a different way (algebraically, graphically, numerically in table, or by verbal descriptions). For example, given a linear function represented by a table of values and a linear function represented by an algebraic expression, determine which function has the greatest rate of change.",,,
F,Functions,8.F.A,"Define, evaluate, and compare functions.",8.F.3-1,"Interpret the equation, y = mx + b as defining a linear function, whose graph is a straight line.",,,
F,Functions,8.F.A,"Define, evaluate, and compare functions.",8.F.3-2,Give examples of functions that are not linear and prove that they are not linear.,,,
F,Functions,8.F.B,Use functions to model relationships between quatities.,8.F.4,"Construct a function to model a linear relationship between two quantities. Determine the rate of change and initial value of the function from a description of a relationship or from two (x,y) values, including reading these from a table or from a graph.",,,
F,Functions,8.F.B,Use functions to model relationships between quatities.,8.F.5-1,"Describe qualitatively the functional relationship between two quantities by analyzing a graph (e.g., where the function is increasing or decreasing, linear or nonlinear).",,,
F,Functions,8.F.B,Use functions to model relationships between quatities.,8.F.5-2,Sketch a graph that exhibits the qualitative features of a function that has been described verbally.,,,
F,Functions,F-IF.B,Interpret functions that arise in applications in terms of the context.,F-IF.4,"For a function that models a relationship between two quantities, interpret key features of graphs and tables in terms of the quantities, and sketch graphs showing key features given a verbal description of the relationship.  Key features include: intercepts; intervals where the function is increasing, decreasing, positive, or negative; relative maximums and minimums; symmetries; end behavior; and periodicity.",,,
6.NS,The Number System,6.NS.B,Compute fluently with multi-digit numbers and find common factors and multiples.,6.NS.B.2,,Division of multi-digit whole numbers.,6.2. 3d by 1d quotient (evenly),3 digit by 1 digit quotient (evenly)
6.NS,The Number System,6.NS.B,Compute fluently with multi-digit numbers and find common factors and multiples.,6.NS.B.2,,Division of multi-digit whole numbers.,6.2. 3-4 digit by 2d quotient (evenly),3 or 4  digit by 2 digit quotient (evenly)
6.NS,The Number System,6.NS.B,Compute fluently with multi-digit numbers and find common factors and multiples.,6.NS.B.2,,Division of multi-digit whole numbers.,6.2. 5d by 2d quotient (evenly or with remainder),5 digit by 2 digit quotient (evenly or with remainder)
6.NS,The Number System,6.NS.B,Compute fluently with multi-digit numbers and find common factors and multiples.,6.NS.B.3,,Add/Subtract with multi-digit decimal numbers.,6.3. Sums (common decimals),Sums (common decimals)
6.NS,The Number System,6.NS.B,Compute fluently with multi-digit numbers and find common factors and multiples.,6.NS.B.3,,Add/Subtract with multi-digit decimal numbers.,6.3. Sums (mixed decimals),Sums (mixed decimals)
6.NS,The Number System,6.NS.B,Compute fluently with multi-digit numbers and find common factors and multiples.,6.NS.B.3,,Add/Subtract with multi-digit decimal numbers.,6.3. Differences (common decimals),Differences (common decimals)
6.NS,The Number System,6.NS.B,Compute fluently with multi-digit numbers and find common factors and multiples.,6.NS.B.3,,Add/Subtract with multi-digit decimal numbers.,6.3. Differences (mixed decimals),Differences (mixed decimals)
6.NS,The Number System,6.NS.B,Compute fluently with multi-digit numbers and find common factors and multiples.,6.NS.B.3,,Multiply with multi-digit decimal numbers.,6.3. Product (whole X decimal),Product (whole X decimal)
6.NS,The Number System,6.NS.B,Compute fluently with multi-digit numbers and find common factors and multiples.,6.NS.B.3,,Multiply with multi-digit decimal numbers.,6.3. Product (decimal X decimal),Product (decimal X decimal)
6.NS,The Number System,6.NS.B,Compute fluently with multi-digit numbers and find common factors and multiples.,6.NS.B.3,,Divide with multi-digit decimal numbers.,6.3. Quotient (whole/decimal),Quotient (whole/decimal)
6.NS,The Number System,6.NS.B,Compute fluently with multi-digit numbers and find common factors and multiples.,6.NS.B.3,,Divide with multi-digit decimal numbers.,6.3. Quotient (decimal by whole),Quotient (decimal/whole)
6.NS,The Number System,6.NS.B,Compute fluently with multi-digit numbers and find common factors and multiples.,6.NS.B.3,,Divide with multi-digit decimal numbers.,6.3. Quotient (decimal/decimal),Quotient (decimal/decimal)
5.NBT,Number and Operations in Base Ten,5.NBT.B,Perform operations with multi-digit whole numbers and with decimals to hundredths.,5.NBT.B.5,,Multiply multi-digit whole numbers.,5. 2d by 2d product,2 digit X 2 digit
5.NBT,Number and Operations in Base Ten,5.NBT.B,Perform operations with multi-digit whole numbers and with decimals to hundredths.,5.NBT.B.6,,Multiply multi-digit whole numbers.,5. 4d by 1d product,4 digit X 1 digit
5.NBT,Number and Operations in Base Ten,5.NBT.B,Perform operations with multi-digit whole numbers and with decimals to hundredths.,5.NBT.B.7,,Multiply multi-digit whole numbers.,5. 3d by 2d product,3 digit X 2 digit 
5.NBT,Number and Operations in Base Ten,5.NBT.B,Perform operations with multi-digit whole numbers and with decimals to hundredths.,5.NBT.B.8,,Multiply multi-digit whole numbers.,5. 4d by 2d product,4 digit X 2 digit 
5.NBT,Number and Operations in Base Ten,5.NBT.B,Perform operations with multi-digit whole numbers and with decimals to hundredths.,5.NBT.B.9,,Multiply multi-digit whole numbers.,5. 3d by 3d product,3 digit X 3 digit 
4.NBT,Number and Operations in Base Ten,4.NBT.B,Use place value understanding and properties of operations to perform multi-digit arithmetic.,4.NBT.B.4,,"Add & subtract within 1,000,000.",4. 3-4d sum (1 regroup),4 digit + 3 digit (1 regroup)
4.NBT,Number and Operations in Base Ten,4.NBT.B,Use place value understanding and properties of operations to perform multi-digit arithmetic.,4.NBT.B.4,,"Add & subtract within 1,000,000.",4. 2 4d sums (2 or more regroup),4 digit + 4 digit (2 or more regroups)
4.NBT,Number and Operations in Base Ten,4.NBT.B,Use place value understanding and properties of operations to perform multi-digit arithmetic.,4.NBT.B.4,,"Add & subtract within 1,000,000.",4. 3-4d differences (no regroup),4 digit - 3 digit (no regroup)
4.NBT,Number and Operations in Base Ten,4.NBT.B,Use place value understanding and properties of operations to perform multi-digit arithmetic.,4.NBT.B.4,,"Add & subtract within 1,000,000.",4. 3-4d differences (1 regroup),4 digit - 3 digit (1 regroup)
4.NBT,Number and Operations in Base Ten,4.NBT.B,Use place value understanding and properties of operations to perform multi-digit arithmetic.,4.NBT.B.4,,"Add & subtract within 1,000,000.",4. 2 4d differences (>1 regroup),4 digit - 4 digit (2 or more regroups)
3.OA,Operations and Algebraic Thinking,3.OA.C,Multiply & Divide within 100.,3.OA.C.7,,Multiply & divide within 100.,3OA. 1d X 1d ,1 digit X 1 digit 
3.OA,Operations and Algebraic Thinking,3.OA.C,Multiply & Divide within 100.,3.OA.C.7,,Multiply & divide within 100.,3OA. 2d divided by 1d (evenly),2 digit divided by 1 digit (evenly)
3.NBT ,Number and Operations in Base Ten,3.NBT.A,Use place value understanding and properties of operations to perform multi-digit arithmetic.,3.NBT.A.2,,"Add & subtract within 1,000.",3NBT. 2d sums (regroup),2 digit + 2 digit (regroup)
3.NBT ,Number and Operations in Base Ten,3.NBT.A,Use place value understanding and properties of operations to perform multi-digit arithmetic.,3.NBT.A.2,,"Add & subtract within 1,000.",3NBT. 3d sums (1 regroup),3 digit + 3 digit (1 regroup)
3.NBT ,Number and Operations in Base Ten,3.NBT.A,Use place value understanding and properties of operations to perform multi-digit arithmetic.,3.NBT.A.2,,"Add & subtract within 1,000.",3NBT. 2 3d sums (2 regroups),3 digit + 3 digit (2 regroups)
3.NBT ,Number and Operations in Base Ten,3.NBT.A,Use place value understanding and properties of operations to perform multi-digit arithmetic.,3.NBT.A.2,,"Add & subtract within 1,000.",3NBT. 3d differences (no regroup),3 digit - 3 digit (no regroup)
3.NBT ,Number and Operations in Base Ten,3.NBT.A,Use place value understanding and properties of operations to perform multi-digit arithmetic.,3.NBT.A.2,,"Add & subtract within 1,000.",3NBT. 3d differences (1 regroup),3 digit - 3 digit (1 regroup)
3.NBT ,Number and Operations in Base Ten,3.NBT.A,Use place value understanding and properties of operations to perform multi-digit arithmetic.,3.NBT.A.2,,"Add & subtract within 1,000.",3NBT. 2 3d differences (2 regroups),3 digit - 3 digit (2 regroups)
2.OA,Operations and Algebraic Thinking,2.OA.B,Add and subtract within 20.,2.OA.B.2,,Add/Subtract within 20.,2OA. 1d sums,Add within 20
2.OA,Operations and Algebraic Thinking,2.OA.B,Add and subtract within 20.,2.OA.B.2,,Add/Subtract within 20.,2OA. 1d differences,Subtract within 20
2.NBT,Number and Operations in Base Ten,2.NBT.B,Use place value understanding and properties of operations to add and subtract.,2.NBT.B.5,,Add within 100.,2NBT. 2d + 1d,2 digit + 1 digit
2.NBT,Number and Operations in Base Ten,2.NBT.B,Use place value understanding and properties of operations to add and subtract.,2.NBT.B.5,,Add within 100.,2NBT. 2d + 2d (no regroup),2 digit + 2 digit (no regroup)
2.NBT,Number and Operations in Base Ten,2.NBT.B,Use place value understanding and properties of operations to add and subtract.,2.NBT.B.5,,Add within 100.,2NBT. 2d + 2d (regroup),2 digit + 2 digit (regroup)
2.NBT,Number and Operations in Base Ten,2.NBT.B,Use place value understanding and properties of operations to add and subtract.,2.NBT.B.5,,Subtract within 100.,2NBT. 2d minus 1d,2 digit - 1 digit
2.NBT,Number and Operations in Base Ten,2.NBT.B,Use place value understanding and properties of operations to add and subtract.,2.NBT.B.5,,Subtract within 100.,2NBT. 2d minus 2d (no regroup),2 digit - 2 digit (no regroup)
2.NBT,Number and Operations in Base Ten,2.NBT.B,Use place value understanding and properties of operations to add and subtract.,2.NBT.B.5,,Subtract within 100.,2NBT. 2d minus 2d (regroup),2 digit - 2 digit (regroup)