<?xml version="1.0" encoding="utf-8"?>
<!-- Generator: Adobe Illustrator 19.1.0, SVG Export Plug-In . SVG Version: 6.00 Build 0)  -->
<svg version="1.1" id="Social_Icons" xmlns="http://www.w3.org/2000/svg" xmlns:xlink="http://www.w3.org/1999/xlink" x="0px"
	 y="0px" viewBox="0 0 200 200" style="enable-background:new 0 0 200 200;" xml:space="preserve">
<style type="text/css">
	.st0{fill:#6F7E95;}
	.st1{fill:#707E94;}
	.st2{fill:#707D94;}
	.st3{fill:#717D93;}
	.st4{fill:#707F96;}
</style>
<g id="Search">
	<g>
		<path class="st0" d="M93.7,153.3c-15.4,0-29.9-6-40.8-16.9s-16.9-25.4-16.9-40.8c0-15.4,6-29.9,16.9-40.8s25.4-16.9,40.8-16.9
			c15.4,0,29.9,6,40.8,16.9s16.9,25.4,16.9,40.8c0,15.4-6,29.9-16.9,40.8S109.1,153.3,93.7,153.3z M93.7,48.1
			c-26.2,0-47.6,21.4-47.6,47.6c0,26.2,21.4,47.6,47.6,47.6s47.6-21.4,47.6-47.6C141.3,69.5,120,48.1,93.7,48.1z"/>
	</g>
	<g>
		<path class="st0" d="M162.2,169.2c-1.3,0-2.6-0.5-3.5-1.5l-31.2-31.2c-2-2-2-5.1,0-7.1c2-2,5.1-2,7.1,0l31.2,31.2c2,2,2,5.1,0,7.1
			C164.7,168.7,163.4,169.2,162.2,169.2z"/>
	</g>
</g>
</svg>
