<?xml version="1.0" encoding="utf-8"?>
<!-- Generator: Adobe Illustrator 19.1.0, SVG Export Plug-In . SVG Version: 6.00 Build 0)  -->
<svg version="1.1" id="Social_Icons" xmlns="http://www.w3.org/2000/svg" xmlns:xlink="http://www.w3.org/1999/xlink" x="0px"
	 y="0px" viewBox="0 0 200 200" style="enable-background:new 0 0 200 200;" xml:space="preserve">
<style type="text/css">
	.st0{fill:#6F7E95;}
	.st1{fill:#707E94;}
	.st2{fill:#707D94;}
	.st3{fill:#717D93;}
	.st4{fill:#707F96;}
</style>
<g>
	<g>
		<path class="st2" d="M146.8,150.6H48.9c-2.6,0-4.6-2.1-4.6-4.6s2.1-4.6,4.6-4.6h97.9c2.6,0,4.6,2.1,4.6,4.6
			S149.4,150.6,146.8,150.6z"/>
	</g>
	<g>
		<path class="st2" d="M48.3,133.8c-2.6,0-4.6-2.1-4.6-4.6v-18.2c0-2.6,2.1-4.6,4.6-4.6c2.6,0,4.6,2.1,4.6,4.6v18.2
			C53,131.7,50.9,133.8,48.3,133.8z"/>
	</g>
	<g>
		<path class="st2" d="M72.9,133.8c-2.6,0-4.6-2.1-4.6-4.6V94.1c0-2.6,2.1-4.6,4.6-4.6s4.6,2.1,4.6,4.6v35.1
			C77.6,131.7,75.5,133.8,72.9,133.8z"/>
	</g>
	<g>
		<path class="st2" d="M97.6,133.8c-2.6,0-4.6-2.1-4.6-4.6V77.3c0-2.6,2.1-4.6,4.6-4.6s4.6,2.1,4.6,4.6v51.9
			C102.2,131.7,100.1,133.8,97.6,133.8z"/>
	</g>
	<g>
		<path class="st2" d="M122.2,133.8c-2.6,0-4.6-2.1-4.6-4.6V60.5c0-2.6,2.1-4.6,4.6-4.6s4.6,2.1,4.6,4.6v68.7
			C126.8,131.7,124.7,133.8,122.2,133.8z"/>
	</g>
	<g>
		<path class="st2" d="M146.8,133.8c-2.6,0-4.6-2.1-4.6-4.6V43.6c0-2.6,2.1-4.6,4.6-4.6s4.6,2.1,4.6,4.6v85.6
			C151.4,131.7,149.4,133.8,146.8,133.8z"/>
	</g>
</g>
</svg>
