<?xml version="1.0" encoding="utf-8"?>
<!-- Generator: Adobe Illustrator 19.1.0, SVG Export Plug-In . SVG Version: 6.00 Build 0)  -->
<svg version="1.1" id="Social_Icons" xmlns="http://www.w3.org/2000/svg" xmlns:xlink="http://www.w3.org/1999/xlink" x="0px"
	 y="0px" viewBox="0 0 200 200" style="enable-background:new 0 0 200 200;" xml:space="preserve">
<style type="text/css">
	.st0{fill:#707E94;}
	.st1{fill:#72557E;}
</style>
<path class="st1" d="M149.1,48.8C122,21.7,78,21.7,50.9,48.8c-27.1,27.1-27.1,71.1,0,98.2c13.1,13.1,30.5,20.3,49.1,20.3
	c18.5,0,36-7.2,49.1-20.3c13.1-13.1,20.3-30.5,20.3-49.1C169.4,79.3,162.2,61.9,149.1,48.8z M128,102.3h-23.5v23.5h-9v-23.5H71.9v-9
	h23.5V69.8h9v23.5H128V102.3z"/>
</svg>
