<?xml version="1.0" encoding="utf-8"?>
<!-- Generator: Adobe Illustrator 19.1.0, SVG Export Plug-In . SVG Version: 6.00 Build 0)  -->
<svg version="1.1" id="Social_Icons" xmlns="http://www.w3.org/2000/svg" xmlns:xlink="http://www.w3.org/1999/xlink" x="0px"
	 y="0px" viewBox="0 0 200 200" style="enable-background:new 0 0 200 200;" xml:space="preserve">
<style type="text/css">
	.st0{fill:#6F7E95;}
	.st1{fill:#707E94;}
	.st2{fill:#707D94;}
	.st3{fill:#717D93;}
	.st4{fill:#707F96;}
</style>
<path class="st2" d="M116.3,99.1c6.2-6,10.3-15.4,10.3-25.9c0-17.1-11.1-29.5-26.4-29.5c-15.3,0-26.4,12.4-26.4,29.5
	c0,10.5,4,19.9,10.2,25.9C59.7,104,41,119.6,41,137v8.5c0,2.4,1.9,4.3,4.3,4.3h109.5c2.4,0,4.3-1.9,4.3-4.3V137
	C159,119.7,140.4,104.1,116.3,99.1z M82.2,73.2c0-12.5,7.2-20.9,17.9-20.9c10.7,0,17.9,8.4,17.9,20.9c0,13.4-8,24.2-17.9,24.2
	C90.2,97.4,82.2,86.6,82.2,73.2z M150.5,141.2H49.5V137c0-14.6,21.6-31,50.5-31s50.5,16.4,50.5,31V141.2z"/>
</svg>
