<?xml version="1.0" encoding="utf-8"?>
<!-- Generator: Adobe Illustrator 19.1.0, SVG Export Plug-In . SVG Version: 6.00 Build 0)  -->
<svg version="1.1" id="Layer_1" xmlns="http://www.w3.org/2000/svg" xmlns:xlink="http://www.w3.org/1999/xlink" x="0px" y="0px"
	 viewBox="0 0 200 200" style="enable-background:new 0 0 200 200;" xml:space="preserve">
<style type="text/css">
	.st0{fill:#707D94;}
</style>
<path class="st0" d="M157.5,135.7V91.6H172c2.3,0,4.3-1.6,4.9-3.8c0.6-2.2-0.5-4.5-2.5-5.6l-71.9-38.4c-1.5-0.8-3.2-0.8-4.7,0
	L25.8,82.2c-2,1.1-3.1,3.4-2.5,5.6c0.6,2.2,2.6,3.8,4.9,3.8h14.3v44.1H23.2v10H177v-10H157.5z M77.5,91.6v44.1h-25V91.6H77.5z
	 M122.5,135.7V91.6h25v44.1H122.5z M112.5,135.7h-25V91.6h25V135.7z M100.1,53.8L152,81.6H48.1L100.1,53.8z"/>
</svg>
