<?xml version="1.0" encoding="utf-8"?>
<!-- Generator: Adobe Illustrator 19.1.0, SVG Export Plug-In . SVG Version: 6.00 Build 0)  -->
<svg version="1.1" id="Social_Icons" xmlns="http://www.w3.org/2000/svg" xmlns:xlink="http://www.w3.org/1999/xlink" x="0px"
	 y="0px" viewBox="0 0 200 200" style="enable-background:new 0 0 200 200;" xml:space="preserve">
<style type="text/css">
	.st0{fill:#6F7E95;}
	.st1{fill:#707E94;}
	.st2{fill:#707D94;}
	.st3{fill:#717D93;}
	.st4{fill:#707F96;}
</style>
<g id="Edit">
	<g>
		<path class="st1" d="M85.9,133.9c-0.4,0-0.8,0-1.1-0.1c0,0,0,0,0,0l-13.7-2.9c-2-0.4-3.6-2-4.1-4.1l-2.9-13.7
			c-0.4-1.9,0.2-4,1.7-5.5l49.5-49.5c2.3-2.3,6-2.5,8.1-0.3l16.6,16.6c1.1,1.1,1.7,2.8,1.5,4.4c-0.2,1.4-0.8,2.7-1.8,3.7L90.2,132
			C89,133.2,87.5,133.9,85.9,133.9z M74.1,123.7l11.2,2.4l47.8-47.8l-13.6-13.6l-47.8,47.8L74.1,123.7z"/>
	</g>
	<g>
		<path class="st1" d="M46.4,155.3c-1,0-2-0.4-2.7-1.1c-1.1-1.1-1.4-2.7-0.9-4.1l12.3-31.3c0.6-1.6,2.2-2.5,3.9-2.4
			c1.7,0.1,3.1,1.4,3.4,3.1l2.7,13.3l13.3,2.7c1.7,0.3,2.9,1.7,3.1,3.4c0.1,1.7-0.8,3.3-2.4,3.9L47.8,155
			C47.4,155.2,46.9,155.3,46.4,155.3z M57.5,133.6l-4.3,11l11.1-4.3l-3.1-0.6c-1.5-0.3-2.7-1.5-3-3L57.5,133.6z"/>
	</g>
	<g>
		<path class="st1" d="M146.1,71.5c-2.9,0-5.8-1.1-8-3.3l-8.3-8.3c-4.4-4.4-4.4-11.6,0-16c4.4-4.4,11.6-4.4,16,0l8.3,8.3
			c4.4,4.4,4.4,11.6,0,16C151.9,70.4,149,71.5,146.1,71.5z M137.7,48.1c-0.9,0-1.9,0.4-2.6,1.1c-1.4,1.4-1.4,3.8,0,5.2l8.3,8.3
			c0,0,0,0,0,0c1.5,1.4,3.8,1.4,5.2,0c1.4-1.4,1.4-3.8,0-5.2l-8.3-8.3C139.6,48.5,138.7,48.1,137.7,48.1z"/>
	</g>
</g>
</svg>
