<?xml version="1.0" encoding="utf-8"?>
<!-- Generator: Adobe Illustrator 19.1.0, SVG Export Plug-In . SVG Version: 6.00 Build 0)  -->
<svg version="1.1" id="Social_Icons" xmlns="http://www.w3.org/2000/svg" xmlns:xlink="http://www.w3.org/1999/xlink" x="0px"
	 y="0px" viewBox="0 0 200 200" style="enable-background:new 0 0 200 200;" xml:space="preserve">
<style type="text/css">
	.st0{fill:#6F7E95;}
	.st1{fill:#707E94;}
	.st2{fill:#707D94;}
	.st3{fill:#717D93;}
	.st4{fill:#707F96;}
</style>
<g>
	<path class="st2" d="M92.4,162.2c-32.8,0-59.5-26.7-59.5-59.5s26.7-59.5,59.5-59.5c13,0,25.3,4.1,35.6,11.9c2.1,1.6,2.6,4.6,1,6.8
		c-1.6,2.1-4.6,2.6-6.8,1c-8.7-6.5-19-9.9-29.9-9.9c-27.5,0-49.8,22.3-49.8,49.8s22.3,49.8,49.8,49.8c25.8,0,47.1-19.8,49.6-45
		h-20.3c-2,0-3.7-1.2-4.5-3c-0.8-1.8-0.3-3.9,1-5.3l25.5-25.5c1.9-1.9,4.9-1.9,6.8,0l25.3,25.3c1.4,1.4,1.8,3.4,1.1,5.2
		c-0.7,1.8-2.5,3-4.4,3l-20.8,0.1C149.2,138,123.6,162.2,92.4,162.2z M133.4,97.9l27.5-0.1l-13.7-13.7L133.4,97.9z"/>
</g>
</svg>
