E-mail,Role,State ID,Organization
user1a@example.com,batch user,,Foo
user1b@example.com,batch user,,Bar
user1c@example.com,batch user,12,
user2@example.com,PARCC user,2,
user3@example.com,ads administator,,parcc