<?xml version="1.0" encoding="utf-8"?>
<!-- Generator: Adobe Illustrator 19.1.0, SVG Export Plug-In . SVG Version: 6.00 Build 0)  -->
<svg version="1.1" id="Social_Icons" xmlns="http://www.w3.org/2000/svg" xmlns:xlink="http://www.w3.org/1999/xlink" x="0px"
	 y="0px" viewBox="0 0 200 200" style="enable-background:new 0 0 200 200;" xml:space="preserve">
<style type="text/css">
	.st0{fill:#6F7E95;}
	.st1{fill:#707E94;}
	.st2{fill:#707D94;}
	.st3{fill:#717D93;}
	.st4{fill:#707F96;}
</style>
<g>
	<path class="st2" d="M88.3,169.6c-0.6,0-1.3-0.1-1.8-0.4c-1.5-0.7-2.4-2.2-2.4-3.9v-50L39.4,49.9c-0.9-1.3-1-3-0.3-4.4
		c0.7-1.4,2.2-2.3,3.8-2.3h109c1.5,0,3,0.8,3.7,2.2c0.8,1.3,0.7,3-0.1,4.3l-39.4,65.5v31.1c0,1.3-0.6,2.5-1.6,3.3l-23.5,19
		C90.2,169.3,89.3,169.6,88.3,169.6z M51,51.8l40.8,59.9c0.5,0.7,0.7,1.6,0.7,2.4v42.3l14.9-12.1v-30.2c0-0.8,0.2-1.5,0.6-2.2
		l36.2-60.1H51z"/>
</g>
</svg>
