<?xml version="1.0" encoding="utf-8"?>
<!-- Generator: Adobe Illustrator 19.1.0, SVG Export Plug-In . SVG Version: 6.00 Build 0)  -->
<svg version="1.1" id="Layer_1" xmlns="http://www.w3.org/2000/svg" xmlns:xlink="http://www.w3.org/1999/xlink" x="0px" y="0px"
	 viewBox="0 0 100 100" style="enable-background:new 0 0 100 100;" xml:space="preserve">
<style type="text/css">
	.st0{fill:#72547D;}
</style>
<g>
	<path class="st0" d="M50.2,51.9l6.5-8.7c0.7-1,1.3-1.8,1.7-2.6c0.5-1,0.7-2,0.7-3c0-1.6-0.7-3.1-2-4.2c-1.2-1-2.7-1.6-4.5-1.6
		c-1.6,0-2.9,0.5-4.1,1.4c-0.9,0.7-1.8,1.8-2.9,3.3l-4,5.7l-4.2-5.7c-1.1-1.5-2-2.5-2.8-3.2c-1.1-1-2.5-1.4-4.1-1.4
		c-1.8,0-3.3,0.5-4.5,1.6c-1.2,1.1-1.9,2.5-1.9,4.1c0,1.7,0.8,3.6,2.4,5.6l6.4,8.6l-7.4,10.7c-1.6,2.2-2.3,4-2.3,5.4
		c0,1.6,0.7,3,2,4.2c1.2,1.1,2.7,1.7,4.5,1.7c1.6,0,3-0.5,4.1-1.4c0.8-0.7,1.8-1.8,2.9-3.3l5-7.2l4.9,7.2c1.1,1.5,2,2.6,2.9,3.4
		c1.1,0.9,2.5,1.4,4.1,1.4c1.7,0,3.2-0.5,4.4-1.6c1.3-1.1,2-2.6,2-4.2c0-1.4-0.7-3.2-2.4-5.5L50.2,51.9z M56.6,70.5
		c-0.8,0.7-1.8,1-3,1c-1.1,0-2-0.3-2.7-0.9c-0.7-0.6-1.6-1.6-2.5-2.9l-6.7-9.8l-6.9,9.8c-1,1.4-1.8,2.4-2.5,2.9
		c-0.7,0.6-1.6,0.9-2.6,0.9c-1.2,0-2.2-0.4-3-1.1c-0.8-0.7-1.2-1.6-1.2-2.5c0-1,0.6-2.4,1.9-4.2l8.3-12l-7.4-10
		c-1.3-1.6-1.9-3.1-1.9-4.3c0-0.9,0.4-1.8,1.1-2.5c0.8-0.7,1.8-1,3-1c1.1,0,2,0.3,2.7,0.9c0.7,0.6,1.5,1.6,2.5,2.9l6,8.2l5.8-8.2
		c1-1.4,1.8-2.3,2.5-2.9c0.7-0.6,1.6-0.9,2.7-0.9c1.2,0,2.2,0.3,3,1c0.8,0.7,1.2,1.5,1.2,2.5c0,0.7-0.2,1.4-0.5,2
		c-0.3,0.6-0.8,1.4-1.5,2.3l-7.4,10l8.3,12c1.3,1.9,2,3.3,2,4.2C57.8,69,57.4,69.8,56.6,70.5z"/>
	<path class="st0" d="M79.1,38.3c-0.1-0.4-0.2-0.8-0.3-1.1c-0.2-0.5-0.5-0.8-0.9-1.1c-0.5-0.3-1-0.5-1.5-0.5h-2.2
		c0.5-0.6,1-1.1,1.4-1.6c0.8-1,1.4-1.8,1.8-2.6c0.5-0.9,0.8-1.7,1-2.5c0.1-0.7,0.2-1.5,0.2-2.2c0-1-0.2-1.9-0.5-2.8
		c-0.4-0.9-0.9-1.7-1.7-2.4c-0.7-0.6-1.6-1.2-2.6-1.5c-1-0.3-2.1-0.5-3.3-0.5c-0.8,0-1.5,0.1-2.2,0.2c-0.7,0.1-1.3,0.3-1.9,0.5
		c-0.6,0.2-1.1,0.4-1.5,0.7c-0.5,0.3-0.9,0.5-1.1,0.8c-0.3,0.3-0.5,0.5-0.6,0.8c-0.2,0.3-0.3,0.6-0.4,0.9c-0.1,0.2-0.1,0.5-0.1,0.7
		c0,0.2,0,0.5,0,0.8c0,0.4,0,0.8,0,1.1c0,0.4,0.1,0.7,0.2,0.9c0.1,0.5,0.4,1,0.8,1.3c0.5,0.4,1.1,0.7,1.7,0.7c0.6,0,1.2-0.2,1.8-0.6
		c0.2-0.1,0.4-0.2,0.7-0.4c0.2-0.1,0.5-0.2,0.8-0.3c0.2-0.1,0.5-0.1,0.8-0.1c0.1,0,0.2,0,0.2,0c0,0,0,0.1,0,0.1c0,0.2,0,0.4-0.1,0.7
		c0,0.1-0.1,0.4-0.3,0.8c-0.2,0.3-0.4,0.8-0.7,1.2c-0.3,0.5-0.8,1-1.4,1.6l-3.3,3.5c-0.2,0.3-0.5,0.5-0.7,0.8
		c-0.2,0.3-0.4,0.6-0.5,0.9c-0.2,0.4-0.3,0.8-0.3,1.2c0,0.3-0.1,0.7-0.1,1.1c0,0.5,0,0.9,0.1,1.3c0.1,0.6,0.4,1.1,0.7,1.5
		c0.4,0.4,0.9,0.8,1.5,0.9c0.3,0.1,0.7,0.1,1.1,0.1h10.9c0.5,0,1.1-0.2,1.5-0.5c0.4-0.3,0.8-0.8,1-1.3c0.1-0.3,0.2-0.6,0.2-1
		c0-0.3,0.1-0.6,0.1-1C79.2,38.9,79.1,38.6,79.1,38.3z M76.9,40c0,0.2-0.1,0.4-0.1,0.5c0,0.1-0.1,0.2-0.2,0.3
		c-0.1,0.1-0.2,0.1-0.3,0.1H65.5c-0.2,0-0.4,0-0.6-0.1c-0.2,0-0.3-0.1-0.4-0.2c-0.1-0.1-0.2-0.3-0.2-0.5c0-0.2-0.1-0.5-0.1-0.8
		c0-0.3,0-0.6,0-0.8c0-0.2,0.1-0.4,0.2-0.6c0.1-0.2,0.2-0.4,0.3-0.5c0.1-0.2,0.3-0.4,0.5-0.6l3.3-3.5c0.7-0.7,1.2-1.3,1.6-1.9
		c0.4-0.6,0.7-1.1,0.9-1.5c0.2-0.5,0.4-0.9,0.5-1.3c0.1-0.4,0.1-0.8,0.1-1.1c0-0.3-0.1-0.6-0.2-0.9c-0.1-0.3-0.3-0.5-0.5-0.8
		c-0.2-0.2-0.5-0.4-0.8-0.5c-0.3-0.1-0.7-0.2-1.1-0.2c-0.6,0-1.1,0.1-1.5,0.2c-0.4,0.1-0.8,0.3-1.2,0.5c-0.3,0.2-0.6,0.3-0.8,0.5
		c-0.2,0.2-0.4,0.2-0.5,0.2c-0.1,0-0.2,0-0.2-0.1c-0.1-0.1-0.1-0.2-0.2-0.3c0-0.1-0.1-0.3-0.1-0.5c0-0.2,0-0.5,0-0.8
		c0-0.2,0-0.4,0-0.6c0-0.2,0-0.3,0.1-0.4c0-0.1,0.1-0.2,0.1-0.3c0-0.1,0.1-0.2,0.3-0.3c0.1-0.1,0.3-0.3,0.7-0.4
		c0.3-0.2,0.7-0.4,1.2-0.5c0.5-0.2,1-0.3,1.6-0.4c0.6-0.1,1.2-0.2,1.8-0.2c1,0,1.8,0.1,2.6,0.4c0.7,0.2,1.3,0.6,1.8,1
		c0.5,0.4,0.9,1,1.1,1.6c0.2,0.6,0.4,1.3,0.4,2c0,0.6-0.1,1.2-0.2,1.8c-0.1,0.6-0.4,1.2-0.7,1.9c-0.4,0.7-0.9,1.4-1.6,2.3
		c-0.7,0.8-1.6,1.8-2.7,2.9l-2.2,2.3h7.5c0.1,0,0.2,0,0.3,0.1s0.2,0.1,0.2,0.3s0.1,0.3,0.1,0.5c0,0.2,0,0.4,0,0.7
		C77,39.6,76.9,39.8,76.9,40z"/>
</g>
</svg>
