<?xml version="1.0" encoding="utf-8"?>
<!-- Generator: Adobe Illustrator 19.1.0, SVG Export Plug-In . SVG Version: 6.00 Build 0)  -->
<svg version="1.1" id="Social_Icons" xmlns="http://www.w3.org/2000/svg" xmlns:xlink="http://www.w3.org/1999/xlink" x="0px"
	 y="0px" viewBox="0 0 200 200" style="enable-background:new 0 0 200 200;" xml:space="preserve">
<style type="text/css">
	.st0{fill:#6F7E95;}
	.st1{fill:#707E94;}
	.st2{fill:#707D94;}
	.st3{fill:#717D93;}
	.st4{fill:#707F96;}
</style>
<path class="st2" d="M152.4,47.8h-22.9c-2.2,0-3.9,1.8-3.9,3.9v7.4H74.5v-7.4c0-2.2-1.8-3.9-3.9-3.9H47.6c-2.2,0-3.9,1.8-3.9,3.9
	v22.6V97v22.6v22.6c0,2.2,1.8,3.9,3.9,3.9h22.9c2.2,0,3.9-1.8,3.9-3.9v-7.4h51.1v7.4c0,2.2,1.8,3.9,3.9,3.9h22.9
	c2.2,0,3.9-1.8,3.9-3.9v-22.6V97V74.4V51.7C156.3,49.5,154.5,47.8,152.4,47.8z M148.5,93.1h-15.1V78.3h15.1V93.1z M133.4,100.9h15.1
	v14.8h-15.1V100.9z M133.4,55.6h15.1v14.8h-15.1V55.6z M66.6,93.1H51.5V78.3h15.1V93.1z M51.5,100.9h15.1v14.8H51.5V100.9z
	 M51.5,55.6h15.1v14.8H51.5V55.6z M66.6,138.4H51.5v-14.8h15.1V138.4z M74.5,127v-7.4V97V74.4V67h51.1v7.4V97v22.6v7.4H74.5z
	 M148.5,138.4h-15.1v-14.8h15.1V138.4z"/>
</svg>
