<?xml version="1.0" encoding="utf-8"?>
<!-- Generator: Adobe Illustrator 19.1.0, SVG Export Plug-In . SVG Version: 6.00 Build 0)  -->
<svg version="1.1" id="Social_Icons" xmlns="http://www.w3.org/2000/svg" xmlns:xlink="http://www.w3.org/1999/xlink" x="0px"
	 y="0px" viewBox="0 0 200 200" style="enable-background:new 0 0 200 200;" xml:space="preserve">
<style type="text/css">
	.st0{fill:#707E94;}
</style>
<g>
	<path class="st0" d="M164.2,97.8c0-35.9-29.2-65.1-65.1-65.1C63.2,32.7,34,61.9,34,97.8c0,17.4,6.8,33.7,19.1,46
		c12.3,12.3,28.6,19.1,46,19.1c17.4,0,33.7-6.8,46-19.1C157.4,131.6,164.2,115.2,164.2,97.8z M99.1,154c-15,0-29.1-5.8-39.7-16.4
		C48.8,126.9,43,112.8,43,97.8c0-31,25.2-56.1,56.1-56.1c15.5,0,29.5,6.3,39.7,16.5c10.2,10.2,16.5,24.2,16.5,39.7
		c0,15-5.8,29.1-16.4,39.7C128.2,148.1,114.1,154,99.1,154z"/>
	
		<rect x="94.6" y="39.2" transform="matrix(0.7071 0.7071 -0.7071 0.7071 98.2083 -41.4117)" class="st0" width="9" height="117.2"/>
</g>
</svg>
