<?xml version="1.0" encoding="utf-8"?>
<!-- Generator: Adobe Illustrator 19.1.0, SVG Export Plug-In . SVG Version: 6.00 Build 0)  -->
<svg version="1.1" id="Social_Icons" xmlns="http://www.w3.org/2000/svg" xmlns:xlink="http://www.w3.org/1999/xlink" x="0px"
	 y="0px" viewBox="0 0 200 200" style="enable-background:new 0 0 200 200;" xml:space="preserve">
<style type="text/css">
	.st0{fill:#707D94;}
	.st1{fill:#707E94;}
</style>
<g>
	<path class="st0" d="M143.8,47.2h-6.9v9h6.9c2.8,0,5.1,2.3,5.1,5.1v87.5c0,2.8-2.3,5.1-5.1,5.1H56.2c-2.8,0-5.1-2.3-5.1-5.1V61.3
		c0-2.8,2.3-5.1,5.1-5.1h6.9v-9h-6.9c-7.8,0-14.1,6.3-14.1,14.1v87.5c0,7.8,6.3,14.1,14.1,14.1h87.5c7.8,0,14.1-6.3,14.1-14.1V61.3
		C157.8,53.5,151.5,47.2,143.8,47.2z"/>
</g>
<g>
	<path class="st0" d="M136.8,64.9H63.2V39.2h15.7C79.4,28,88.7,19,100,19s20.6,9,21.1,20.2h15.7V64.9z M72.2,55.9h55.6v-7.7h-17.2
		l1.2-5.5c0.2-0.9,0.3-1.8,0.3-2.6c0-6.7-5.4-12.1-12.1-12.1s-12.1,5.4-12.1,12.1c0,0.9,0.1,1.7,0.3,2.6l1.2,5.5H72.2V55.9z"/>
</g>
<g>
	<rect x="65" y="81.7" class="st1" width="70" height="7.7"/>
</g>
<g>
	<rect x="65" y="98.9" class="st1" width="70" height="7.7"/>
</g>
<g>
	<polygon class="st1" points="85.9,120.7 100.9,131.8 96.1,131.7 116.4,116.6 118.4,118.9 100.9,137.2 98.4,139.8 96,137.1 
		83.6,123.2 	"/>
</g>
</svg>
