<?xml version="1.0" encoding="utf-8"?>
<!-- Generator: Adobe Illustrator 19.1.0, SVG Export Plug-In . SVG Version: 6.00 Build 0)  -->
<svg version="1.1" id="Social_Icons" xmlns="http://www.w3.org/2000/svg" xmlns:xlink="http://www.w3.org/1999/xlink" x="0px"
	 y="0px" viewBox="0 0 200 200" style="enable-background:new 0 0 200 200;" xml:space="preserve">
<style type="text/css">
	.st0{fill:#6F7E95;}
	.st1{fill:#707E94;}
	.st2{fill:#707D94;}
	.st3{fill:#717D93;}
	.st4{fill:#707F96;}
</style>
<g>
	<g>
		<path class="st3" d="M101,154.2c-0.9,0-1.8-0.3-2.5-0.8c-1.1-0.8-1.8-2.1-1.8-3.5V70.7c0-1.9,1.2-3.5,3-4.1l59-19.4
			c1.3-0.4,2.8-0.2,3.9,0.6c1.1,0.8,1.8,2.1,1.8,3.5v79.1c0,1.9-1.2,3.5-3,4.1l-59,19.4C101.9,154.1,101.5,154.2,101,154.2z
			 M105.4,73.9v69.9l50.3-16.6V57.3L105.4,73.9z"/>
	</g>
	<g>
		<path class="st3" d="M101.2,154.2c-0.5,0-0.9-0.1-1.4-0.2l-59-19.4c-1.8-0.6-3-2.3-3-4.1V51.3c0-1.4,0.7-2.7,1.8-3.5
			c1.1-0.8,2.6-1,3.9-0.6l59,19.4c1.8,0.6,3,2.3,3,4.1v79.1c0,1.4-0.7,2.7-1.8,3.5C103,153.9,102.1,154.2,101.2,154.2z M46.5,127.3
			l50.3,16.6V73.9L46.5,57.3V127.3z"/>
	</g>
</g>
</svg>
