<?xml version="1.0" encoding="utf-8"?>
<!-- Generator: Adobe Illustrator 19.1.0, SVG Export Plug-In . SVG Version: 6.00 Build 0)  -->
<svg version="1.1" id="Social_Icons" xmlns="http://www.w3.org/2000/svg" xmlns:xlink="http://www.w3.org/1999/xlink" x="0px"
	 y="0px" viewBox="0 0 200 200" style="enable-background:new 0 0 200 200;" xml:space="preserve">
<style type="text/css">
	.st0{fill:#6F7E95;}
	.st1{fill:#707E94;}
	.st2{fill:#707D94;}
	.st3{fill:#717D93;}
	.st4{fill:#707F96;}
</style>
<g>
	<g>
		<path class="st1" d="M146.2,148.6H53.8c-2.3,0-4.1-1.9-4.1-4.1V52c0-2.3,1.9-4.1,4.1-4.1h92.4c2.3,0,4.1,1.9,4.1,4.1v92.4
			C150.4,146.7,148.5,148.6,146.2,148.6z M57.9,140.3h84.1V56.2H57.9V140.3z"/>
	</g>
	<g>
		<rect x="74.8" y="74.1" class="st1" width="50.4" height="7.7"/>
	</g>
	<g>
		<rect x="74.8" y="91.2" class="st1" width="50.4" height="7.7"/>
	</g>
</g>
<g>
	<polygon class="st1" points="77.9,111 92.9,122.1 88,122.1 108.3,106.9 110.4,109.3 92.8,127.5 90.3,130.1 88,127.5 75.5,113.6 	
		"/>
</g>
</svg>
