<?xml version="1.0" encoding="utf-8"?>
<!-- Generator: Adobe Illustrator 19.1.0, SVG Export Plug-In . SVG Version: 6.00 Build 0)  -->
<svg version="1.1" id="Social_Icons" xmlns="http://www.w3.org/2000/svg" xmlns:xlink="http://www.w3.org/1999/xlink" x="0px"
	 y="0px" viewBox="0 0 200 200" style="enable-background:new 0 0 200 200;" xml:space="preserve">
<style type="text/css">
	.st0{fill:#6F7E95;}
	.st1{fill:#707E94;}
	.st2{fill:#707D94;}
	.st3{fill:#717D93;}
	.st4{fill:#707F96;}
</style>
<g>
	<path class="st1" d="M145.1,51.8c-25.4-25.4-66.7-25.4-92.1,0c-25.4,25.4-25.4,66.7,0,92.1c12.3,12.3,28.7,19.1,46,19.1
		c17.4,0,33.7-6.8,46-19.1c12.3-12.3,19.1-28.7,19.1-46C164.2,80.5,157.4,64.1,145.1,51.8z M138.8,137.5
		c-10.6,10.6-24.7,16.4-39.7,16.4c-15,0-29.1-5.8-39.7-16.4c-21.9-21.9-21.9-57.5,0-79.4c10.9-10.9,25.3-16.4,39.7-16.4
		c14.4,0,28.7,5.5,39.7,16.4c10.6,10.6,16.4,24.7,16.4,39.7C155.2,112.8,149.4,126.9,138.8,137.5z"/>
	<polygon class="st1" points="103.6,69.8 94.6,69.8 94.6,93.4 71,93.4 71,102.3 94.6,102.3 94.6,125.9 103.6,125.9 103.6,102.3 
		127.1,102.3 127.1,93.4 103.6,93.4 	"/>
</g>
</svg>
