<?xml version="1.0" encoding="utf-8"?>
<!-- Generator: Adobe Illustrator 19.1.0, SVG Export Plug-In . SVG Version: 6.00 Build 0)  -->
<svg version="1.1" id="Layer_1" xmlns="http://www.w3.org/2000/svg" xmlns:xlink="http://www.w3.org/1999/xlink" x="0px" y="0px"
	 viewBox="0 0 200 200" style="enable-background:new 0 0 200 200;" xml:space="preserve">
<style type="text/css">
	.st0{fill:#95B0CC;}
</style>
<g>
	<path class="st0" d="M164.3,64.2c-2.5,0-4.5,2-4.5,4.5v92.5H34.9V36.3h94.6c2.5,0,4.5-2,4.5-4.5s-2-4.5-4.5-4.5H30.4
		c-2.5,0-4.5,2-4.5,4.5v133.9c0,2.5,2,4.5,4.5,4.5h133.9c2.5,0,4.5-2,4.5-4.5v-97C168.8,66.3,166.8,64.2,164.3,64.2z"/>
	<rect x="60.8" y="63.8" class="st0" width="42.7" height="11.2"/>
	<rect x="60.8" y="94.7" class="st0" width="73" height="11.2"/>
	<rect x="60.8" y="124.3" class="st0" width="73" height="11.2"/>
	<path class="st0" d="M119.9,63.8V75c0,1.7,1.3,3,3,3h10.9c0.8,0,1.6-0.3,2.1-0.9L159,54c1.2-1.2,1.2-3.1,0-4.2l-11-11
		c-1.2-1.2-3.1-1.2-4.2,0l-23,22.9C120.2,62.2,119.9,63,119.9,63.8z"/>
	<path class="st0" d="M173.2,35.6l-11-11c-1.2-1.2-3-1.2-4.2,0l-5.6,5.5c-1.2,1.2-1.2,3.1,0,4.2l10.9,11.2c0.6,0.6,1.2,1,2.2,0.9
		c0.8,0,1.6-0.3,2.1-0.9l5.7-5.7C174.4,38.6,174.4,36.7,173.2,35.6z"/>
</g>
</svg>
