<?xml version="1.0" encoding="utf-8"?>
<!-- Generator: Adobe Illustrator 19.1.0, SVG Export Plug-In . SVG Version: 6.00 Build 0)  -->
<svg version="1.1" id="Social_Icons" xmlns="http://www.w3.org/2000/svg" xmlns:xlink="http://www.w3.org/1999/xlink" x="0px"
	 y="0px" viewBox="0 0 200 200" style="enable-background:new 0 0 200 200;" xml:space="preserve">
<style type="text/css">
	.st0{fill:#6F7E95;}
	.st1{fill:#707E94;}
	.st2{fill:#707D94;}
	.st3{fill:#717D93;}
	.st4{fill:#707F96;}
</style>
<g>
	<path class="st0" d="M101,140.2c-1.2,0-2.4-0.5-3.3-1.4L33.7,74.9c-1.8-1.8-1.8-4.8,0-6.7c1.8-1.8,4.8-1.8,6.7,0l60.6,60.6
		l60.6-60.6c1.8-1.8,4.8-1.8,6.7,0c1.8,1.8,1.8,4.8,0,6.7l-63.9,63.9C103.4,139.8,102.2,140.2,101,140.2z"/>
</g>
</svg>
